﻿
DisplayName "Pocket Castle Royal Parlor"



EVENT   1
 PAGE   1
  RunCommonEvent(111)
  0()



EVENT   2
 PAGE   1
  0()



EVENT   3
 PAGE   1
  281(0)
  250(bytes(0x04,0x08,0x6f,0x3a,0x0c,0x52,0x50,0x47,0x3a,0x3a,0x53,0x45,0x08,0x3a,0x0a,0x40,0x6e,0x61,0x6d,0x65,0x49,0x22,0x09,0x4d,0x6f,0x76,0x65,0x06,0x3a,0x06,0x45,0x54,0x3a,0x0b,0x40,0x70,0x69,0x74,0x63,0x68,0x69,0x69,0x3a,0x0c,0x40,0x76,0x6f,0x6c,0x75,0x6d,0x65,0x69,0x55))
  TeleportPlayer(0,277,40,30,0,0)
  0()



EVENT   4
 PAGE   1
  // condition: switch 1531 is ON
  PictureDisplay(5,"80_saniria_st11",0,0,0,0,100,100,0,0)
  PictureMove(5,null,0,0,0,0,100,100,255,0,30,true)
  If(1,3531,0,100,1)
   If(1,4531,0,0,0)
    ChangeVariable(4531,4531,0,0,1)
    ShowMessageFace("saniria_fc2",0,0,2,1)
    ShowMessage("\\n<King of San Ilia (Affection:\\V[3531])>Please take this. It's a relief supply from the Church.")
    250(bytes(0x04,0x08,0x6f,0x3a,0x0c,0x52,0x50,0x47,0x3a,0x3a,0x53,0x45,0x08,0x3a,0x0a,0x40,0x6e,0x61,0x6d,0x65,0x49,0x22,0x0a,0x49,0x74,0x65,0x6d,0x31,0x06,0x3a,0x06,0x45,0x54,0x3a,0x0b,0x40,0x70,0x69,0x74,0x63,0x68,0x69,0x69,0x3a,0x0c,0x40,0x76,0x6f,0x6c,0x75,0x6d,0x65,0x69,0x55))
    ChangeInventoryArmor(1031,0,0,1,false)
    0()
   EndIf()
   0()
  EndIf()
  If(1,3531,0,500,1)
   If(1,4531,0,1,0)
    ChangeVariable(4531,4531,0,0,2)
    ShowMessageFace("saniria_fc2",0,0,2,2)
    ShowMessage("\\n<King of San Ilia (Affection:\\V[3531])>Please take this. It's a relief supply from the Church.")
    250(bytes(0x04,0x08,0x6f,0x3a,0x0c,0x52,0x50,0x47,0x3a,0x3a,0x53,0x45,0x08,0x3a,0x0a,0x40,0x6e,0x61,0x6d,0x65,0x49,0x22,0x0a,0x49,0x74,0x65,0x6d,0x31,0x06,0x3a,0x06,0x45,0x54,0x3a,0x0b,0x40,0x70,0x69,0x74,0x63,0x68,0x69,0x69,0x3a,0x0c,0x40,0x76,0x6f,0x6c,0x75,0x6d,0x65,0x69,0x55))
    ChangeInventoryArmor(1261,0,0,1,false)
    0()
   EndIf()
   0()
  EndIf()
  If(1,3531,0,2000,1)
   If(1,4531,0,2,0)
    ChangeVariable(4531,4531,0,0,3)
    ShowMessageFace("saniria_fc2",0,0,2,3)
    ShowMessage("\\n<King of San Ilia (Affection:\\V[3531])>Please take this. It's a relief supply from the Church.")
    250(bytes(0x04,0x08,0x6f,0x3a,0x0c,0x52,0x50,0x47,0x3a,0x3a,0x53,0x45,0x08,0x3a,0x0a,0x40,0x6e,0x61,0x6d,0x65,0x49,0x22,0x0a,0x49,0x74,0x65,0x6d,0x31,0x06,0x3a,0x06,0x45,0x54,0x3a,0x0b,0x40,0x70,0x69,0x74,0x63,0x68,0x69,0x69,0x3a,0x0c,0x40,0x76,0x6f,0x6c,0x75,0x6d,0x65,0x69,0x55))
    ChangeInventoryArmor(1127,0,0,1,false)
    0()
   EndIf()
   0()
  EndIf()
  If(1,3531,0,4000,1)
   If(1,4531,0,3,0)
    ChangeVariable(4531,4531,0,0,4)
    ShowMessageFace("saniria_fc2",0,0,2,4)
    ShowMessage("\\n<King of San Ilia (Affection:\\V[3531])>Please take this. It's a relief supply from the Church.")
    250(bytes(0x04,0x08,0x6f,0x3a,0x0c,0x52,0x50,0x47,0x3a,0x3a,0x53,0x45,0x08,0x3a,0x0a,0x40,0x6e,0x61,0x6d,0x65,0x49,0x22,0x0a,0x49,0x74,0x65,0x6d,0x31,0x06,0x3a,0x06,0x45,0x54,0x3a,0x0b,0x40,0x70,0x69,0x74,0x63,0x68,0x69,0x69,0x3a,0x0c,0x40,0x76,0x6f,0x6c,0x75,0x6d,0x65,0x69,0x55))
    ChangeInventoryArmor(1034,0,0,1,false)
    0()
   EndIf()
   0()
  EndIf()
  355("actor_label_jump")
  ShowMessageFace("saniria_fc2",0,0,2,5)
  ShowMessage("\\n<King of San Ilia (Affection:\\V[3531])>Maintenance complete... Guess I can take off any time.")
  JumpToLabel("メニュー")
  DefineLabel("26")
  ShowMessageFace("saniria_fc2",0,0,2,6)
  ShowMessage("\\n<King of San Ilia (Affection:\\V[3531])>I must say, I absolutely did not expect the Goddess Ilias to be reduced to such an appearance...")
  ShowMessageFace("iriasu_fc4",2,0,2,7)
  ShowMessage("\\n<Ilias (Affection:\\V[3026])>I'm surprised by your appearance as well...")
  ShowMessageFace("saniria_fc2",0,0,2,8)
  ShowMessage("\\n<King of San Ilia (Affection:\\V[3531])>Well, no matter what forms we take, I shall dedicate my flesh and blood to your service.")
  ShowMessageFace("iriasu_fc4",2,0,2,9)
  ShowMessage("\\n<Ilias (Affection:\\V[3026])>Even though your flesh is mechanical and your blood is oil? Well, no matter. I expect great things from you.")
  JumpToLabel("メニュー")
  DefineLabel("34")
  ShowMessageFace("micaelac_fc1",0,0,2,10)
  ShowMessage("【ミカエラちゃん】(Affection:\\V[3034])")
  ShowMessage("法王様、マクニエル祝史を読み終えたわ。")
  ShowMessage("五章の結びが、少し浮いている気がしたけれど……")
  ShowMessageFace("saniria_fc2",0,0,2,11)
  ShowMessage("【サン・イリア王】")
  ShowMessage("ふむ、よく読み込んでいる。")
  ShowMessage("あの箇所は、別人の加筆である事が確実視されているのだよ。")
  ShowMessageFace("rucyfinac_fc1",0,0,2,12)
  ShowMessage("【ルシフィナちゃん】(Affection:\\V[3036])")
  ShowMessage("メカ法王様、あたしにも絵本よんで～！")
  ShowMessageFace("saniria_fc2",0,0,2,13)
  ShowMessage("【サン・イリア王】")
  ShowMessage("うむ、少し待っていたまえ。")
  ShowMessage("妖精達と一緒に『かいぞくじまのぼうけん』を読んであげよう。")
  ShowMessageFace("rucyfinac_fc1",1,0,2,14)
  ShowMessage("【ルシフィナちゃん】(Affection:\\V[3036])")
  ShowMessage("わ～い♪")
  JumpToLabel("メニュー")
  DefineLabel("72")
  ShowMessageFace("phoenix_fc1",4,0,2,15)
  ShowMessage("\\n<Mini (Affection:\\V[3072])>Oh, it's the king! Let's play together!")
  ShowMessageFace("saniria_fc2",0,0,2,16)
  ShowMessage("\\n<King of San Ilia (Affection:\\V[3531])>All right, what do you want to play?")
  ShowMessageFace("phoenix_fc1",1,0,2,17)
  ShowMessage("\\n<Mini (Affection:\\V[3072])>I'll get in a pot, and then I want you to set a fire underneath.")
  ShowMessageFace("saniria_fc2",0,0,2,18)
  ShowMessage("\\n<King of San Ilia (Affection:\\V[3531])>That's... What kind of game is that?")
  JumpToLabel("メニュー")
  DefineLabel("86")
  ShowMessageFace("saniria_fc2",0,0,2,19)
  ShowMessage("\\n<King of San Ilia (Affection:\\V[3531])>So there are even monsters who follow the teachings of Ilias... All are equal before the Goddess. It is a true pleasure.")
  ShowMessageFace("name_s_fc1",0,0,2,20)
  ShowMessage("\\n<Rosary (Affection:\\V[3086])>You are the King of San Ilia... I am still immature. Please show me the way.")
  ShowMessageFace("saniria_fc2",0,0,2,21)
  ShowMessage("\\n<King of San Ilia (Affection:\\V[3531])>Was it you who ruined my vegetable garden? That slime-covered veil looks familiar...")
  JumpToLabel("メニュー")
  DefineLabel("122")
  ShowMessageFace("saniria_fc2",0,0,2,22)
  ShowMessage("\\n<King of San Ilia (Affection:\\V[3531])>So there are even monsters who follow the teachings of Ilias... All are equal before the Goddess. It is a true pleasure.")
  ShowMessageFace("sisterlamia_fc1",0,0,2,23)
  ShowMessage("\\n<Sofia (Affection:\\V[3122])>I am often looked at with bias, but I want to spread the teachings of Ilias to the whole world.")
  ShowMessageFace("sisterlamia_fc1",4,0,2,24)
  ShowMessage("\\n<Sofia (Affection:\\V[3122])>King of San Ilia, head of the church... Please guide me as well.")
  ShowMessageFace("saniria_fc2",0,0,2,25)
  ShowMessage("\\n<King of San Ilia (Affection:\\V[3531])>Your smile is scary... First, keep in mind that a natural smile is best.")
  JumpToLabel("メニュー")
  DefineLabel("123")
  ShowMessageFace("saniria_fc2",0,0,2,26)
  ShowMessage("\\n<King of San Ilia (Affection:\\V[3531])>So there are even monsters who follow the teachings of Ilias... All are equal before the Goddess. It is a true pleasure.")
  ShowMessageFace("sisccubus_fc1",2,0,2,27)
  ShowMessage("\\n<Christie (Affection:\\V[3123])>King of San Ilia... Please give me guidance on how to stop my desires.")
  ShowMessageFace("saniria_fc2",0,0,2,28)
  ShowMessage("\\n<King of San Ilia (Affection:\\V[3531])>...Stop roaming around naked at night.")
  JumpToLabel("メニュー")
  DefineLabel("128")
  ShowMessageFace("saniria_fc2",0,0,2,29)
  ShowMessage("\\n<King of San Ilia (Affection:\\V[3531])>You also had cyborg surgery?")
  ShowMessageFace("kaniloid_fc1",0,0,2,30)
  ShowMessage("\\n<Jillian (Affection:\\V[3128])>Yes, but... This is my first time seeing a human who's like me.")
  ShowMessageFace("saniria_fc2",0,0,2,31)
  ShowMessage("\\n<King of San Ilia (Affection:\\V[3531])>Let's both do our best to make the whole world mechanical.")
  ShowMessageFace("kaniloid_fc1",2,0,2,32)
  ShowMessage("\\n<Jillian (Affection:\\V[3128])>........?!")
  ShowMessageFace("saniria_fc2",0,0,2,33)
  ShowMessage("\\n<King of San Ilia (Affection:\\V[3531])>...That was a joke.")
  JumpToLabel("メニュー")
  DefineLabel("139")
  ShowMessageFace("saniria_fc2",0,0,2,34)
  ShowMessage("\\n<King of San Ilia (Affection:\\V[3531])>Oh, fairies. I'll read a story for you.")
  ShowMessageFace("fairys_fc1",3,0,2,35)
  ShowMessage("\\n<Fairies (Affection:\\V[3139])>Yaaay! Gather round!")
  ShowMessageFace("sonia_fc1",0,0,2,36)
  ShowMessage("\\n<Sonya>You seem on good terms with those fairies, Your Holiness.")
  ShowMessageFace("saniria_fc2",0,0,2,37)
  ShowMessage("\\n<King of San Ilia (Affection:\\V[3531])>They started coming to the castle a while ago. Now, to the picture book. 'The judgment of the Goddess burned the sinner...'")
  ShowMessageFace("sonia_fc3",2,0,2,38)
  ShowMessage("\\n<Sonya>(You're doing missionary work?!)")
  JumpToLabel("メニュー")
  DefineLabel("520")
  ShowMessageFace("saniria_fc2",0,0,2,39)
  ShowMessage("【サン・イリア王】(Affection:\\V[3531])")
  ShowMessage("お前とは、話をする必要があるな……")
  ShowMessageFace("lazarus3_fc1",0,0,2,40)
  ShowMessage("【ラザロ】(Affection:\\V[3520])")
  ShowMessage("それで、俺に黙秘権はあるのか？")
  ShowMessage("法廷で不利な証拠に使われる？")
  ShowMessageFace("lazarus3_fc1",0,0,2,41)
  ShowMessage("【ラザロ】(Affection:\\V[3520])")
  ShowMessage("弁護士を呼ぶ権利はあるのか？")
  ShowMessage("金がない時は、公選弁護人を呼んでもらえる？")
  ShowMessageFace("saniria_fc2",0,0,2,42)
  ShowMessage("【サン・イリア王】(Affection:\\V[3531])")
  ShowMessage("これは取り調べではない……だからこそ、素の言葉で聞きたい。")
  ShowMessage("なぜお前が、私を狙ったのかをな。")
  ShowMessageFace("lazarus3_fc1",1,0,2,43)
  ShowMessage("【ラザロ】(Affection:\\V[3520])")
  ShowMessage("あの爆破テロは、犯罪組織の仕業だったと仮定するぜ。")
  ShowMessage("もちろん仮の話であって、想像で話してるに過ぎねぇ。")
  ShowMessageFace("lazarus3_fc1",1,0,2,44)
  ShowMessage("【ラザロ】(Affection:\\V[3520])")
  ShowMessage("その犯罪組織に、法王暗殺を依頼した奴がいるんじゃないか？")
  ShowMessage("世の中をメチャクチャにしたい奴……とかな。")
  ShowMessageFace("lazarus3_fc1",1,0,2,45)
  ShowMessage("【ラザロ】(Affection:\\V[3520])")
  ShowMessage("その犯罪組織も、法王に手を出せば一国を敵に回す。")
  ShowMessage("それでもやったって事は、相応のケツモチがいるって事だ。")
  ShowMessageFace("saniria_fc2",0,0,2,46)
  ShowMessage("【サン・イリア王】(Affection:\\V[3531])")
  ShowMessage("なるほど、やはり……")
  ShowMessageFace("lazarus3_fc1",0,0,2,47)
  ShowMessage("【ラザロ】(Affection:\\V[3520])")
  ShowMessage("だいたい、あんたが考えてる通りのはずだぜ……")
  ShowMessage("一つの大きい絵だったんだよ、大戦争も含めた全部がな。")
  ShowMessageFace("lazarus3_fc1",0,0,2,48)
  ShowMessage("【ラザロ】(Affection:\\V[3520])")
  ShowMessage("……以上、全ては仮定の話だ。")
  ShowMessage("この録音に、証拠能力はないって事だぜ。")
  ShowMessageFace("saniria_fc2",0,0,2,49)
  ShowMessage("【サン・イリア王】(Affection:\\V[3531])")
  ShowMessage("……録音している事、気付いていたか。")
  ShowMessageFace("lazarus3_fc1",0,0,2,50)
  ShowMessage("【ラザロ】(Affection:\\V[3520])")
  ShowMessage("あんたのやり方は知ってるさ、メカ法王。")
  JumpToLabel("メニュー")
  DefineLabel("522")
  ShowMessageFace("saniria_fc2",0,0,2,51)
  ShowMessage("【サン・イリア王】(Affection:\\V[3531])")
  ShowMessage("マーリン……表のドン・ファーザー。")
  ShowMessage("ただの影武者に留まらない、ドンの懐刀か。")
  ShowMessageFace("merlin_fc1",0,0,2,52)
  ShowMessage("【マーリン】(Affection:\\V[3522])")
  ShowMessage("このような場所で、禍根を抉り合うのは止めましょう。")
  ShowMessage("ルカ君一行に迷惑を掛けるわけにはいきますまい……")
  ShowMessageFace("saniria_fc2",0,0,2,53)
  ShowMessage("【サン・イリア王】(Affection:\\V[3531])")
  ShowMessage("必ず、法の下に引きずり出す……")
  ShowMessage("……が、ここでは仲間でありたいものだ。")
  ShowMessageFace("merlin_fc1",0,0,2,54)
  ShowMessage("【マーリン】(Affection:\\V[3522])")
  ShowMessage("ならば、お互い公私混同は控えましょう。")
  ShowMessage("禍根は司法の場に持ち越そうでないですか……")
  ShowMessageFace("saniria_fc2",0,0,2,55)
  ShowMessage("【サン・イリア王】(Affection:\\V[3531])")
  ShowMessage("……………………")
  ShowMessageFace("merlin_fc1",0,0,2,56)
  ShowMessage("【マーリン】(Affection:\\V[3522])")
  ShowMessage("……………………")
  JumpToLabel("メニュー")
  DefineLabel("529")
  ShowMessageFace("saniria_fc2",0,0,2,57)
  ShowMessage("\\n<King of San Ilia (Affection:\\V[3531])>Oh my, the Princess of Sabasa... No, you're the Queen now, aren't you. Your father told me to look after you if something were to happen with him.")
  ShowMessageFace("sara_fc1",3,0,2,58)
  ShowMessage("\\n<Sara (Affection:\\V[3529])>It has been quite a while, King of San Ilia. By 'if something were to happen,' did he mean... in case he died?")
  ShowMessageFace("saniria_fc2",0,0,2,59)
  ShowMessage("\\n<King of San Ilia (Affection:\\V[3531])>No, he meant in case he ran away from home or left for an adventure. That kind of thing.")
  ShowMessageFace("sara_fc1",4,0,2,60)
  ShowMessage("\\n<Sara (Affection:\\V[3529])>Father... Are you a kid...?")
  JumpToLabel("メニュー")
  DefineLabel("535")
  ShowMessageFace("saniria_fc2",0,0,2,61)
  ShowMessage("【サン・イリア王】(Affection:\\V[3531])")
  ShowMessage("グランゴルド王……")
  ShowMessage("お互い、人間を止める羽目になってしまったな。")
  ShowMessageFace("grangold_fc2",0,0,2,62)
  ShowMessage("【グランゴルド王】(Affection:\\V[3535])")
  ShowMessage("ええ……つくづく困ったものです。")
  ShowMessage("この体はこの体で、便利な事もあるのですけど。")
  ShowMessageFace("saniria_fc2",0,0,2,63)
  ShowMessage("【サン・イリア王】(Affection:\\V[3531])")
  ShowMessage("ところで……君もメカにならないかね？")
  ShowMessageFace("grangold_fc2",0,0,2,64)
  ShowMessage("【グランゴルド王】(Affection:\\V[3535])")
  ShowMessage("それはそうと……あなたも、光の差す方に向かいませんか？")
  If(0,6,0)
   ShowMessageFace("sonia_fc3",2,0,2,65)
   ShowMessage("【ソニア】")
   ShowMessage("互いに危ない勧誘してる！？")
   0()
  EndIf()
  JumpToLabel("メニュー")
  DefineLabel("538")
  ShowMessageFace("saniria_fc2",0,0,2,66)
  ShowMessage("【サン・イリア王】(Affection:\\V[3531])")
  ShowMessage("あなたが、かの英雄ハインリヒ……")
  ShowMessage("そのご高名、500年の後には知らない者などおりませんぞ。")
  ShowMessageFace("heinrich_fc1",7,0,2,67)
  ShowMessage("【ハインリヒ】(Affection:\\V[3538])")
  ShowMessage("そのハインリヒと、今の僕とは別です。")
  ShowMessage("まだまだ僕は、魔王討伐の道半ばである身ですから。")
  ShowMessageFace("heinrich_fc1",2,0,2,68)
  ShowMessage("【ハインリヒ】(Affection:\\V[3538])")
  ShowMessage("しかし、そのお姿はいったい……？")
  ShowMessage("未来の世界では、神職者はみな機械化されているのですが？")
  ShowMessageFace("saniria_fc2",0,0,2,69)
  ShowMessage("【サン・イリア王】(Affection:\\V[3531])")
  ShowMessage("もしそうならば、なかなか愉快なディストピアだが……")
  ShowMessage("残念ながら、私は例外だよ。")
  JumpToLabel("メニュー")
  DefineLabel("メニュー")
  StartLoop()
   355("unlimited_choices(11, [\"Give presents\",")
   655("\"Add to party\",")
   655("\"View present list\",\"Never mind\"])")
   If(1,11,0,0,0)
    355("present_start(531)")
    0()
   EndIf()
   If(1,11,0,1,0)
    PictureClear(5)
    355("move_actor_ex(531)")
    EndEventProcessing()
    0()
   EndIf()
   If(1,11,0,2,0)
    ShowMessageFace("",0,0,2,70)
    ShowMessage("Affection     100:\\ia[1031]")
    ShowMessage("Affection     500:\\ia[1261]")
    ShowMessage("Affection   2000:\\ia[1127]")
    ShowMessage("Affection   4000:\\ia[1034]")
    0()
   EndIf()
   If(1,11,0,3,1)
    PictureClear(5)
    EndEventProcessing()
    0()
   EndIf()
   0()
  EndLoop()
  0()
 PAGE   2
  // condition: party contains actor #531
  0()



EVENT   5
 PAGE   1
  // condition: switch 1533 is ON
  If(1,1090,0,1,0)
   RunCommonEvent(362)
   0()
  EndIf()
  PictureDisplay(5,"80_grandnoa_st01",0,0,0,0,100,100,0,0)
  PictureMove(5,null,0,0,0,0,100,100,255,0,30,true)
  If(1,3533,0,100,1)
   If(1,4533,0,0,0)
    ChangeVariable(4533,4533,0,0,1)
    ShowMessageFace("grandnoa_fc1",0,0,2,1)
    ShowMessage("\\n<Queen of Grand Noah (Affection:\\V[3533])>Allow me to give you this.")
    250(bytes(0x04,0x08,0x6f,0x3a,0x0c,0x52,0x50,0x47,0x3a,0x3a,0x53,0x45,0x08,0x3a,0x0a,0x40,0x6e,0x61,0x6d,0x65,0x49,0x22,0x0a,0x49,0x74,0x65,0x6d,0x31,0x06,0x3a,0x06,0x45,0x54,0x3a,0x0b,0x40,0x70,0x69,0x74,0x63,0x68,0x69,0x69,0x3a,0x0c,0x40,0x76,0x6f,0x6c,0x75,0x6d,0x65,0x69,0x55))
    ChangeInventoryArmor(1056,0,0,1,false)
    0()
   EndIf()
   0()
  EndIf()
  If(1,3533,0,500,1)
   If(1,4533,0,1,0)
    ChangeVariable(4533,4533,0,0,2)
    ShowMessageFace("grandnoa_fc1",0,0,2,2)
    ShowMessage("\\n<Queen of Grand Noah (Affection:\\V[3533])>Allow me to give you this.")
    250(bytes(0x04,0x08,0x6f,0x3a,0x0c,0x52,0x50,0x47,0x3a,0x3a,0x53,0x45,0x08,0x3a,0x0a,0x40,0x6e,0x61,0x6d,0x65,0x49,0x22,0x0a,0x49,0x74,0x65,0x6d,0x31,0x06,0x3a,0x06,0x45,0x54,0x3a,0x0b,0x40,0x70,0x69,0x74,0x63,0x68,0x69,0x69,0x3a,0x0c,0x40,0x76,0x6f,0x6c,0x75,0x6d,0x65,0x69,0x55))
    ChangeInventoryArmor(1071,0,0,1,false)
    0()
   EndIf()
   0()
  EndIf()
  If(1,3533,0,2000,1)
   If(1,4533,0,2,0)
    ChangeVariable(4533,4533,0,0,3)
    ShowMessageFace("grandnoa_fc1",0,0,2,3)
    ShowMessage("\\n<Queen of Grand Noah (Affection:\\V[3533])>Allow me to give you this.")
    250(bytes(0x04,0x08,0x6f,0x3a,0x0c,0x52,0x50,0x47,0x3a,0x3a,0x53,0x45,0x08,0x3a,0x0a,0x40,0x6e,0x61,0x6d,0x65,0x49,0x22,0x0a,0x49,0x74,0x65,0x6d,0x31,0x06,0x3a,0x06,0x45,0x54,0x3a,0x0b,0x40,0x70,0x69,0x74,0x63,0x68,0x69,0x69,0x3a,0x0c,0x40,0x76,0x6f,0x6c,0x75,0x6d,0x65,0x69,0x55))
    ChangeInventoryArmor(1168,0,0,1,false)
    0()
   EndIf()
   0()
  EndIf()
  If(1,3533,0,4000,1)
   If(1,4533,0,3,0)
    ChangeVariable(4533,4533,0,0,4)
    ShowMessageFace("grandnoa_fc1",0,0,2,4)
    ShowMessage("\\n<Queen of Grand Noah (Affection:\\V[3533])>Allow me to give you this.")
    250(bytes(0x04,0x08,0x6f,0x3a,0x0c,0x52,0x50,0x47,0x3a,0x3a,0x53,0x45,0x08,0x3a,0x0a,0x40,0x6e,0x61,0x6d,0x65,0x49,0x22,0x0a,0x49,0x74,0x65,0x6d,0x31,0x06,0x3a,0x06,0x45,0x54,0x3a,0x0b,0x40,0x70,0x69,0x74,0x63,0x68,0x69,0x69,0x3a,0x0c,0x40,0x76,0x6f,0x6c,0x75,0x6d,0x65,0x69,0x55))
    ChangeInventoryArmor(1590,0,0,1,false)
    0()
   EndIf()
   0()
  EndIf()
  355("actor_label_jump")
  ShowMessageFace("grandnoa_fc1",0,0,2,5)
  ShowMessage("\\n<Queen of Grand Noah (Affection:\\V[3533])>Ahh, what beautiful medals...")
  JumpToLabel("メニュー")
  DefineLabel("53")
  ShowMessageFace("slime_fc1",0,0,2,6)
  ShowMessage("\\n<Lime (Affection:\\V[3053])>Your majestyyyy! I found a small medaaal!")
  ShowMessageFace("grandnoa_fc1",2,0,2,7)
  ShowMessage("\\n<Queen of Grand Noah (Affection:\\V[3533])>Let's see... Oh, this isn't a medal. Is this a bottle cap?")
  ShowMessageFace("slime_fc1",2,0,2,8)
  ShowMessage("\\n<Lime (Affection:\\V[3053])>Whaaat...? That's disappointing...")
  ShowMessageFace("grandnoa_fc1",1,0,2,9)
  ShowMessage("\\n<Queen of Grand Noah (Affection:\\V[3533])>...But I also collect bottle caps. How about I trade you for a biscuit?")
  ShowMessageFace("slime_fc1",0,0,2,10)
  ShowMessage("\\n<Lime (Affection:\\V[3053])>Yaay! Thank youuu!")
  ShowMessageFace("sonia_fc1",0,0,2,11)
  ShowMessage("\\n<Sonya (Affection:\\V[3525])>That's awfully kind of you, your majesty.")
  ShowMessageFace("grandnoa_fc1",1,0,2,12)
  ShowMessage("\\n<Queen of Grand Noah (Affection:\\V[3533])>Oh, it's actually very interesting in it's own way. It's 64 years old, and was made in the Delia Workshop...")
  ShowMessageFace("sonia_fc4",0,0,2,13)
  ShowMessage("\\n<Sonya (Affection:\\V[3525])>(She actually collects bottle caps?)")
  JumpToLabel("メニュー")
  DefineLabel("171")
  ShowMessageFace("lizardboss_fc1",1,0,2,14)
  ShowMessage("\\n<Miranda (Affection:\\V[3171])>Wait, isn't she Grand Noah's...?! I wonder how much I could squeeze out of her if I kidnapped her here...")
  ShowMessageFace("grandnoa_fc1",0,0,2,15)
  ShowMessage("\\n<Queen of Grand Noah (Affection:\\V[3533])>Unfortunately, I am just a mysterious medal queen. You won't be able to ransom me.")
  ShowMessageFace("lizardboss_fc1",3,0,2,16)
  ShowMessage("\\n<Miranda (Affection:\\V[3171])>What? You're not her? Sorry about that.")
  ShowMessageFace("sonia_fc3",2,0,2,17)
  ShowMessage("\\n<Sonya>(She was tricked that easily?!)")
  JumpToLabel("メニュー")
  DefineLabel("212")
  ShowMessageFace("durahan_fc1",0,0,2,18)
  ShowMessage("【アーサー】(Affection:\\V[3212])")
  ShowMessage("女王陛下……この剣、常に陛下のために！")
  ShowMessageFace("grandnoa_fc1",0,0,2,19)
  ShowMessage("【グランドノア女王】(Affection:\\V[3533])")
  ShowMessage("いえ、私は正体不明のメダル女王です……")
  ShowMessageFace("durahan_fc1",2,0,2,20)
  ShowMessage("【アーサー】(Affection:\\V[3212])")
  ShowMessage("そ、それは失礼……")
  ShowMessageFace("grandnoa_fc1",1,0,2,21)
  ShowMessage("【グランドノア女王】(Affection:\\V[3533])")
  ShowMessage("あなたの忠誠、主君は心強く思っているでしょう。")
  ShowMessage("これからも国民のために戦い抜いて下さいね。")
  ShowMessageFace("durahan_fc1",1,0,2,22)
  ShowMessage("【アーサー】(Affection:\\V[3212])")
  ShowMessage("はっ！　喜んで！")
  JumpToLabel("メニュー")
  DefineLabel("213")
  ShowMessageFace("kerberos_fc1",0,0,2,23)
  ShowMessage("【シーザー】(Affection:\\V[3213])")
  ShowMessage("我が力、女王陛下のために！")
  ShowMessageFace("grandnoa_fc1",0,0,2,24)
  ShowMessage("【グランドノア女王】(Affection:\\V[3533])")
  ShowMessage("いえ、私は正体不明のメダル女王です……")
  ShowMessageFace("kerberos_fc1",2,0,2,25)
  ShowMessage("【シーザー】(Affection:\\V[3213])")
  ShowMessage("なんと、これは失礼……")
  ShowMessageFace("grandnoa_fc1",0,0,2,26)
  ShowMessage("【グランドノア女王】(Affection:\\V[3533])")
  ShowMessage("まさか、本当に気付いていないとは……")
  JumpToLabel("メニュー")
  DefineLabel("233")
  ShowMessageFace("mefist_fc1",0,0,2,27)
  ShowMessage("【メフィスト】(Affection:\\V[3233])")
  ShowMessage("女王陛下……なぜ私を、ここまで信用するのです？")
  ShowMessage("土壇場で裏切られるなどと考えないのでしょうか？")
  ShowMessageFace("grandnoa_fc1",0,0,2,28)
  ShowMessage("【グランドノア女王】(Affection:\\V[3533])")
  ShowMessage("信頼はしていませんが、信用はしていますよ。")
  ShowMessage("あなたのプライドが、裏切りなど許さないのでしょう？")
  ShowMessageFace("mefist_fc1",0,0,2,29)
  ShowMessage("【メフィスト】(Affection:\\V[3233])")
  ShowMessage("なるほど、ずいぶん人を見る目があるのですね。")
  ShowMessage("私を重んじるのは、信頼ではなく価値観を見抜いた上ですか。")
  ShowMessageFace("grandnoa_fc1",0,0,2,30)
  ShowMessage("【グランドノア女王】(Affection:\\V[3533])")
  ShowMessage("あなたを信じていると……そう言ってほしかったですか？")
  ShowMessageFace("mefist_fc1",0,0,2,31)
  ShowMessage("【メフィスト】(Affection:\\V[3233])")
  ShowMessage("ええ、もちろん。")
  JumpToLabel("メニュー")
  DefineLabel("391")
  ShowMessageFace("mefist_fc2",0,0,2,32)
  ShowMessage("【メフィスト】(Affection:\\V[3233])")
  ShowMessage("女王陛下……なぜ私を、ここまで信用するのです？")
  ShowMessage("土壇場で裏切られるなどと考えないのでしょうか？")
  ShowMessageFace("grandnoa_fc1",0,0,2,33)
  ShowMessage("【グランドノア女王】(Affection:\\V[3533])")
  ShowMessage("信頼はしていませんが、信用はしていますよ。")
  ShowMessage("あなたのプライドが、裏切りなど許さないのでしょう？")
  ShowMessageFace("mefist_fc2",0,0,2,34)
  ShowMessage("【メフィスト】(Affection:\\V[3233])")
  ShowMessage("なるほど、ずいぶん人を見る目があるのですね。")
  ShowMessage("私を重んじるのは、信頼ではなく価値観を見抜いた上ですか。")
  ShowMessageFace("grandnoa_fc1",0,0,2,35)
  ShowMessage("【グランドノア女王】(Affection:\\V[3533])")
  ShowMessage("あなたを信じていると……そう言ってほしかったですか？")
  ShowMessageFace("mefist_fc2",0,0,2,36)
  ShowMessage("【メフィスト】(Affection:\\V[3233])")
  ShowMessage("ええ、もちろん。")
  JumpToLabel("メニュー")
  DefineLabel("525")
  ShowMessageFace("sonia_fc2",2,0,2,37)
  ShowMessage("\\n<Sonya (Affection:\\V[3525])>Umm, is this really okay? You're out on an adventure even though you're a queen...")
  ShowMessageFace("grandnoa_fc1",0,0,2,38)
  ShowMessage("\\n<Queen of Grand Noah (Affection:\\V[3533])>Meda-- ...Ensuring the safety of the world is part of a ruler's duties. To that end, it is appropriate for me to be willing to go on a long journey.")
  ShowMessageFace("sonia_fc4",0,0,2,39)
  ShowMessage("\\n<Sonya (Affection:\\V[3525])>(...She almost said 'medals.')")
  JumpToLabel("メニュー")
  DefineLabel("529")
  ShowMessageFace("sara_fc1",1,0,2,40)
  ShowMessage("\\n<Sara (Affection:\\V[3529])>The Queen of Grand Noah. Long time no see.")
  ShowMessageFace("grandnoa_fc1",0,0,2,41)
  ShowMessage("\\n<Queen of Grand Noah (Affection:\\V[3533])>Oh my, who have you mistaken me for? I am just a mysterious medal queen.")
  ShowMessageFace("sara_fc1",4,0,2,42)
  ShowMessage("\\n<Sara (Affection:\\V[3529])>You're that determined to keep up your persona?")
  JumpToLabel("メニュー")
  DefineLabel("535")
  ShowMessageFace("grangold_fc2",0,0,2,43)
  ShowMessage("【グランゴルド王】(Affection:\\V[3535])")
  ShowMessage("グランドノア女王……従姉弟同士ですが、ずいぶん久しぶりですね。")
  ShowMessage("十年ほど前の会食で会って以来、お変わりになったようで。")
  ShowMessageFace("grandnoa_fc1",2,0,2,44)
  ShowMessage("【グランドノア女王】(Affection:\\V[3533])")
  ShowMessage("あの頃は、まだ即位前でしたから。")
  ShowMessage("あなたこそ、ずいぶん変わって……というか、変形しましたね。")
  ShowMessageFace("grangold_fc2",0,0,2,45)
  ShowMessage("【グランゴルド王】(Affection:\\V[3535])")
  ShowMessage("女王陛下も、もう何段階か変形してみませんか？")
  ShowMessageFace("grandnoa_fc1",1,0,2,46)
  ShowMessage("【グランドノア女王】(Affection:\\V[3533])")
  ShowMessage("いえ……遠慮しておきます。")
  JumpToLabel("メニュー")
  DefineLabel("メニュー")
  StartLoop()
   355("unlimited_choices(11, [\"Give presents\",")
   655("\"Add to party\",")
   655("\"View present list\",\"Never mind\"])")
   If(1,11,0,0,0)
    355("present_start(533)")
    0()
   EndIf()
   If(1,11,0,1,0)
    PictureClear(5)
    355("move_actor_ex(533)")
    EndEventProcessing()
    0()
   EndIf()
   If(1,11,0,2,0)
    ShowMessageFace("",0,0,2,47)
    ShowMessage("Affection     100:\\ia[1056]")
    ShowMessage("Affection     500:\\ia[1071]")
    ShowMessage("Affection   2000:\\ia[1168]")
    ShowMessage("Affection   4000:\\ia[1590]")
    0()
   EndIf()
   If(1,11,0,3,1)
    PictureClear(5)
    EndEventProcessing()
    0()
   EndIf()
   0()
  EndLoop()
  0()
 PAGE   2
  // condition: party contains actor #533
  0()



EVENT   6
 PAGE   1
  // condition: switch 1563 is ON
  355("actor_label_jump")
  ShowMessageFace("People4",7,0,2,1)
  ShowMessage("\\n<Pilate (Affection:\\V[3563])>To take even someone like me with you! Thank you! Thank you!")
  JumpToLabel("メニュー")
  DefineLabel("メニュー")
  ShowChoices(strings("Add to party","Never mind"),2)
  IfPlayerPicksChoice(0,null)
   PictureClear(5)
   355("move_actor_ex(563)")
   EndEventProcessing()
   0()
  IfPlayerPicksChoice(1,null)
   PictureClear(5)
   EndEventProcessing()
   0()
  404()
  0()
 PAGE   2
  // condition: party contains actor #563
  0()



EVENT   7
 PAGE   1
  // condition: switch 1565 is ON
  355("actor_label_jump")
  ShowMessageFace("Actor3",6,0,2,1)
  ShowMessage("\\n<Samson (Affection:\\V[3565])>I am Sabasa's mighty hammer, and my strength is widely praised! Now, let me show you what I do best!")
  JumpToLabel("メニュー")
  DefineLabel("メニュー")
  ShowChoices(strings("Add to party","Never mind"),2)
  IfPlayerPicksChoice(0,null)
   PictureClear(5)
   355("move_actor_ex(565)")
   EndEventProcessing()
   0()
  IfPlayerPicksChoice(1,null)
   PictureClear(5)
   EndEventProcessing()
   0()
  404()
  0()
 PAGE   2
  // condition: party contains actor #565
  0()



EVENT   8
 PAGE   1
  // condition: switch 1564 is ON
  355("actor_label_jump")
  ShowMessageFace("Actor1",4,0,2,1)
  ShowMessage("\\n<John (Affection:\\V[3564])>Do you need my power? I'll show you the spear of judgement known as the Lightning of Ilias.")
  JumpToLabel("メニュー")
  DefineLabel("メニュー")
  ShowChoices(strings("Add to party","Never mind"),2)
  IfPlayerPicksChoice(0,null)
   PictureClear(5)
   355("move_actor_ex(564)")
   EndEventProcessing()
   0()
  IfPlayerPicksChoice(1,null)
   PictureClear(5)
   EndEventProcessing()
   0()
  404()
  0()
 PAGE   2
  // condition: party contains actor #564
  0()



EVENT   9
 PAGE   1
  // condition: switch 1019 is ON
  PictureDisplay(5,"80_arumaeruma_st61",0,0,0,0,100,100,0,0)
  PictureMove(5,null,0,0,0,0,100,100,255,0,30,true)
  If(1,3019,0,2000,1)
   If(1,4019,0,0,0)
    ChangeVariable(4019,4019,0,0,1)
    ShowMessageFace("arumaeruma_fc2",0,0,2,1)
    ShowMessage("【アルマエルマ】(Affection:\\V[3019])")
    ShowMessage("プレゼントよ、ルカちゃん……♪")
    250(bytes(0x04,0x08,0x6f,0x3a,0x0c,0x52,0x50,0x47,0x3a,0x3a,0x53,0x45,0x08,0x3a,0x0a,0x40,0x6e,0x61,0x6d,0x65,0x49,0x22,0x0a,0x49,0x74,0x65,0x6d,0x31,0x06,0x3a,0x06,0x45,0x54,0x3a,0x0b,0x40,0x70,0x69,0x74,0x63,0x68,0x69,0x69,0x3a,0x0c,0x40,0x76,0x6f,0x6c,0x75,0x6d,0x65,0x69,0x55))
    ChangeInventoryArmor(1038,0,0,1,false)
    0()
   EndIf()
   0()
  EndIf()
  If(1,3019,0,4000,1)
   If(1,4019,0,1,0)
    ChangeVariable(4019,4019,0,0,2)
    ShowMessageFace("arumaeruma_fc2",0,0,2,2)
    ShowMessage("【アルマエルマ】(Affection:\\V[3019])")
    ShowMessage("プレゼントよ、ルカちゃん……♪")
    250(bytes(0x04,0x08,0x6f,0x3a,0x0c,0x52,0x50,0x47,0x3a,0x3a,0x53,0x45,0x08,0x3a,0x0a,0x40,0x6e,0x61,0x6d,0x65,0x49,0x22,0x0a,0x49,0x74,0x65,0x6d,0x31,0x06,0x3a,0x06,0x45,0x54,0x3a,0x0b,0x40,0x70,0x69,0x74,0x63,0x68,0x69,0x69,0x3a,0x0c,0x40,0x76,0x6f,0x6c,0x75,0x6d,0x65,0x69,0x55))
    ChangeInventoryArmor(1152,0,0,1,false)
    0()
   EndIf()
   0()
  EndIf()
  If(1,3019,0,6000,1)
   If(1,4019,0,2,0)
    ChangeVariable(4019,4019,0,0,3)
    ShowMessageFace("arumaeruma_fc2",0,0,2,3)
    ShowMessage("【アルマエルマ】(Affection:\\V[3019])")
    ShowMessage("プレゼントよ、ルカちゃん……♪")
    250(bytes(0x04,0x08,0x6f,0x3a,0x0c,0x52,0x50,0x47,0x3a,0x3a,0x53,0x45,0x08,0x3a,0x0a,0x40,0x6e,0x61,0x6d,0x65,0x49,0x22,0x0a,0x49,0x74,0x65,0x6d,0x31,0x06,0x3a,0x06,0x45,0x54,0x3a,0x0b,0x40,0x70,0x69,0x74,0x63,0x68,0x69,0x69,0x3a,0x0c,0x40,0x76,0x6f,0x6c,0x75,0x6d,0x65,0x69,0x55))
    ChangeInventoryArmor(1241,0,0,1,false)
    0()
   EndIf()
   0()
  EndIf()
  If(1,3019,0,10000,1)
   If(1,4019,0,3,0)
    ChangeVariable(4019,4019,0,0,4)
    ShowMessageFace("arumaeruma_fc2",0,0,2,4)
    ShowMessage("【アルマエルマ】(Affection:\\V[3019])")
    ShowMessage("プレゼントよ、ルカちゃん……♪")
    250(bytes(0x04,0x08,0x6f,0x3a,0x0c,0x52,0x50,0x47,0x3a,0x3a,0x53,0x45,0x08,0x3a,0x0a,0x40,0x6e,0x61,0x6d,0x65,0x49,0x22,0x0a,0x49,0x74,0x65,0x6d,0x31,0x06,0x3a,0x06,0x45,0x54,0x3a,0x0b,0x40,0x70,0x69,0x74,0x63,0x68,0x69,0x69,0x3a,0x0c,0x40,0x76,0x6f,0x6c,0x75,0x6d,0x65,0x69,0x55))
    ChangeInventoryArmor(1242,0,0,1,false)
    0()
   EndIf()
   0()
  EndIf()
  355("actor_label_jump")
  ShowMessageFace("arumaeruma_fc2",0,0,2,5)
  ShowMessage("\\n<Alma Elma (Affection:\\V[3019])>I'm bored here.\nWhy don't we hold a martial--I mean marital ball?")
  JumpToLabel("メニュー")
  DefineLabel("5")
  ShowMessageFace("alice_fc5",0,0,2,6)
  ShowMessage("【アリス】(Affection:\\V[3005])")
  ShowMessage("アルマエルマ……")
  ShowMessage("相変わらず貴様は、自由気ままだな。")
  ShowMessageFace("arumaeruma_fc2",0,0,2,7)
  ShowMessage("【アルマエルマ】(Affection:\\V[3019])")
  ShowMessage("そういう性分だもの、仕方がないわ。")
  ShowMessage("でも、そんな私でも放っておけないものはあるわよ……？")
  ShowMessageFace("alice_fc5",0,0,2,8)
  ShowMessage("【アリス】(Affection:\\V[3005])")
  ShowMessage("だからこそ、今ここにいるというわけか……")
  ShowMessage("貴様の力、頼りにしているぞ。")
  ShowMessageFace("arumaeruma_fc2",1,0,2,9)
  ShowMessage("【アルマエルマ】(Affection:\\V[3019])")
  ShowMessage("任せておいて、ふふふっ……♪")
  JumpToLabel("メニュー")
  DefineLabel("56")
  ShowMessageFace("inp_fc1",0,0,2,10)
  ShowMessage("【ラミ】(Affection:\\V[3056])")
  ShowMessage("ねぇねぇ、アルマエルマ様～！")
  ShowMessage("あたしも、サキュバスの女王様になれるかな？")
  ShowMessageFace("arumaeruma_fc2",0,0,2,11)
  ShowMessage("【アルマエルマ】(Affection:\\V[3019])")
  ShowMessage("それは、あなたの努力次第ね。")
  ShowMessage("今から努力を重ねたら、夢じゃないかも……")
  ShowMessageFace("inp_fc1",1,0,2,12)
  ShowMessage("【ラミ】(Affection:\\V[3056])")
  ShowMessage("わ～い、がんばるぞ～！")
  ShowMessage("ところでアルマエルマ様の弱点って、何ですか……？")
  ShowMessageFace("arumaeruma_fc2",0,0,2,13)
  ShowMessage("【アルマエルマ】(Affection:\\V[3019])")
  ShowMessage("（この子、下克上する気マンマンね……）")
  JumpToLabel("メニュー")
  DefineLabel("57")
  ShowMessageFace("inp_fc3",0,0,2,14)
  ShowMessage("【ルミ】(Affection:\\V[3057])")
  ShowMessage("アルマエルマ先輩、押忍！")
  ShowMessageFace("arumaeruma_fc2",0,0,2,15)
  ShowMessage("【アルマエルマ】(Affection:\\V[3019])")
  ShowMessage("うふふっ……")
  ShowMessage("ルミちゃんは、いつも元気ね。")
  ShowMessageFace("inp_fc3",0,0,2,16)
  ShowMessage("【ルミ】(Affection:\\V[3057])")
  ShowMessage("しゅばばばば……")
  ShowMessageFace("arumaeruma_fc2",0,0,2,17)
  ShowMessage("【アルマエルマ】(Affection:\\V[3019])")
  ShowMessage("あら、シャドーボクシング？")
  ShowMessage("スパーリングなら付き合ってあげるわ。")
  ShowMessageFace("inp_fc3",0,0,2,18)
  ShowMessage("【ルミ】(Affection:\\V[3057])")
  ShowMessage("押忍！　胸をお借りします！")
  ShowMessageFace("arumaeruma_fc2",0,0,2,19)
  ShowMessage("【アルマエルマ】(Affection:\\V[3019])")
  ShowMessage("ふふっ、礼儀正しい子……")
  JumpToLabel("メニュー")
  DefineLabel("58")
  ShowMessageFace("inp_fc2",0,0,2,20)
  ShowMessage("【レミ】(Affection:\\V[3058])")
  ShowMessage("おどおど……")
  ShowMessageFace("arumaeruma_fc2",0,0,2,21)
  ShowMessage("【アルマエルマ】(Affection:\\V[3019])")
  ShowMessage("大丈夫、取って食いやしないわよ……")
  ShowMessageFace("inp_fc2",2,0,2,22)
  ShowMessage("【レミ】(Affection:\\V[3058])")
  ShowMessage("……びくっ！")
  ShowMessageFace("arumaeruma_fc2",0,0,2,23)
  ShowMessage("【アルマエルマ】(Affection:\\V[3019])")
  ShowMessage("本当に臆病な子ね……")
  ShowMessage("ちゃんと獲物を捕まえられるのかしら？")
  JumpToLabel("メニュー")
  DefineLabel("143")
  ShowMessageFace("eva_fc1",0,0,2,24)
  ShowMessage("【エヴァ】(Affection:\\V[3143])")
  ShowMessage("あなたの事、よく知ってますよ！")
  ShowMessage("えっと……フエルノルマ様！")
  ShowMessageFace("arumaeruma_fc2",0,0,2,25)
  ShowMessage("【アルマエルマ】(Affection:\\V[3019])")
  ShowMessage("名前、違うわよ。")
  ShowMessageFace("eva_fc1",0,0,2,26)
  ShowMessage("【エヴァ】(Affection:\\V[3143])")
  ShowMessage("ちょうど、良い儲け話があるんですよ。")
  ShowMessage("ほらほら、このパンフレット見て下さい……！")
  ShowMessageFace("arumaeruma_fc2",0,0,2,27)
  ShowMessage("【アルマエルマ】(Affection:\\V[3019])")
  ShowMessage("マイペースな子ね……意外と大物なのかも。")
  JumpToLabel("メニュー")
  DefineLabel("287")
  ShowMessageFace("succubus_fc1",0,0,2,28)
  ShowMessage("【サキュバス】(Affection:\\V[3287])")
  ShowMessage("アルマエルマ様……村の統治を助けてくれませんか？")
  ShowMessage("私達には、あなたのように強い象徴が必要なのです。")
  ShowMessageFace("arumaeruma_fc2",0,0,2,29)
  ShowMessage("【アルマエルマ】(Affection:\\V[3019])")
  ShowMessage("あの村に、象徴なんて必要ないわ。")
  ShowMessage("あなたがリーダーとして、皆を導いているのだから。")
  ShowMessageFace("succubus_fc1",3,0,2,30)
  ShowMessage("【サキュバス】(Affection:\\V[3287])")
  ShowMessage("しかし……私では、まだまだ力不足で……")
  ShowMessageFace("arumaeruma_fc2",0,0,2,31)
  ShowMessage("【アルマエルマ】(Affection:\\V[3019])")
  ShowMessage("私みたいな根無し草を象徴に掲げれば、たちまち空中分解よ。")
  ShowMessage("あなた自身が、村の者達に最も信頼されている事を知りなさい。")
  ShowMessageFace("succubus_fc1",0,0,2,32)
  ShowMessage("【サキュバス】(Affection:\\V[3287])")
  ShowMessage("分かりました……")
  ShowMessage("これからも粉骨砕身、村のために尽くしましょう。")
  JumpToLabel("メニュー")
  DefineLabel("303")
  ShowMessageFace("arumaeruma_fc2",0,0,2,33)
  ShowMessage("【アルマエルマ】(Affection:\\V[3019])")
  ShowMessage("あら、琴の魔物なんて珍しいわね……")
  ShowMessage("ちょっとだけ、奏でてみても良いかしら？")
  ShowMessageFace("jeraira_fc1",0,0,2,34)
  ShowMessage("【ジェライラ】(Affection:\\V[3303])")
  ShowMessage("音を知る者と見ました。")
  ShowMessage("どうぞ存分に、私をかき鳴らして下さい……")
  ShowMessageFace("arumaeruma_fc2",0,0,2,35)
  ShowMessage("【アルマエルマ】(Affection:\\V[3019])")
  ShowMessage("じゃあ、お言葉に甘えて……")
  ShowMessage("うふふっ、とっても良い音ね……♪")
  ShowMessageFace("jeraira_fc1",0,0,2,36)
  ShowMessage("【ジェライラ】(Affection:\\V[3303])")
  ShowMessage("ああ、なんと繊細な手さばき……")
  ShowMessage("私をこんなに感じさせるなんて……")
  JumpToLabel("メニュー")
  DefineLabel("341")
  ShowMessageFace("lilith_fc1",0,0,2,37)
  ShowMessage("【リリス＆リリム】")
  ShowMessage("アルマエルマ……あなたが、この時代のクィーンね。")
  ShowMessage("でも私達が見たところ、あなたは……")
  ShowMessageFace("arumaeruma_fc2",0,0,2,38)
  ShowMessage("【アルマエルマ】(Affection:\\V[3019])")
  ShowMessage("……それ、母親から散々に聞いて耳にタコよ。")
  ShowMessageFace("lilith_fc1",0,0,2,39)
  ShowMessage("【リリス＆リリム】")
  ShowMessage("淫魔の甘い快楽、私達が教えてあげようかしら……？")
  ShowMessageFace("arumaeruma_fc2",0,0,2,40)
  ShowMessage("【アルマエルマ】(Affection:\\V[3019])")
  ShowMessage("間に合ってるから結構よ、ふふふっ……")
  JumpToLabel("メニュー")
  DefineLabel("349")
  ShowMessageFace("monk_sucubuss_fc1",0,0,2,41)
  ShowMessage("【エルザ】(Affection:\\V[3349])")
  ShowMessage("アルマエルマ様は、武術の達人だっていう噂があるけど……")
  ShowMessage("それって、本当なんですか？")
  ShowMessageFace("arumaeruma_fc2",0,0,2,42)
  ShowMessage("【アルマエルマ】(Affection:\\V[3019])")
  ShowMessage("さあ、どうかしらね……ふふっ。")
  ShowMessageFace("monk_sucubuss_fc1",0,0,2,43)
  ShowMessage("【エルザ】(Affection:\\V[3349])")
  ShowMessage("数年前、謎の道場破りサキュバスが現れて、")
  ShowMessage("各地の道場を襲ったって噂が……")
  ShowMessageFace("arumaeruma_fc2",7,0,2,44)
  ShowMessage("【アルマエルマ】(Affection:\\V[3019])")
  ShowMessage("さあ、夢でも見たんじゃないかしら……？")
  JumpToLabel("メニュー")
  DefineLabel("382")
  ShowMessageFace("morrigan_fc1",0,0,2,45)
  ShowMessage("【モリガン】(Affection:\\V[3382])")
  ShowMessage("うわ、暴力サキュバスクィーンだ～！")
  ShowMessage("そんなんで、ママから怒られなかったのか？")
  ShowMessageFace("arumaeruma_fc2",7,0,2,46)
  ShowMessage("【アルマエルマ】(Affection:\\V[3019])")
  ShowMessage("もちろん、怒られて……最後には勘当よ。")
  ShowMessage("それから母とは会わず、結局は死に別れたわ。")
  ShowMessageFace("morrigan_fc1",2,0,2,47)
  ShowMessage("【モリガン】(Affection:\\V[3382])")
  ShowMessage("おっと、悪い事言っちまったな……")
  ShowMessageFace("arumaeruma_fc2",7,0,2,48)
  ShowMessage("【アルマエルマ】(Affection:\\V[3019])")
  ShowMessage("まあ、素行の悪い娘だったからね……")
  ShowMessage("もう少し、親孝行しておけばよかったわ。")
  JumpToLabel("メニュー")
  DefineLabel("メニュー")
  StartLoop()
   355("unlimited_choices(11, [\"Give presents\",")
   655("\"Add to party\",")
   655("\"View present list\",\"Request\",")
   655("\"Never mind\"])")
   If(1,11,0,0,0)
    355("present_start(19)")
    0()
   EndIf()
   If(1,11,0,1,0)
    PictureClear(5)
    355("move_actor_ex(19)")
    EndEventProcessing()
    0()
   EndIf()
   If(1,11,0,2,0)
    ShowMessageFace("",0,0,2,49)
    ShowMessage("Affection    2000:\\ia[1038]")
    ShowMessage("Affection    4000:\\ia[1152]")
    ShowMessage("Affection    6000:\\ia[1241]")
    ShowMessage("Affection  10000:\\ia[1242]")
    0()
   EndIf()
   If(1,11,0,3,0)
    PictureClear(5)
    ShowMessageFace("",0,0,2,50)
    ShowMessage("Ask her for what? (Affection:\\V[3019])")
    ShowChoices(strings("Handjob(Affection:10)","Tail Swallow(Affection:50)","Reverse Rape(Affection:100)","Never mind"),4)
    IfPlayerPicksChoice(0,null)
     If(1,3019,0,10,1)
      355("call_novel_scene(5731)")
      EndEventProcessing()
      0()
     Else()
      ShowMessageFace("arumaeruma_fc2",0,0,2,51)
      ShowMessage("【アルマエルマ】(Affection:\\V[3019])")
      ShowMessage("おあずけよ、うふふっ……")
      0()
     EndIf()
     0()
    IfPlayerPicksChoice(1,null)
     If(1,3019,0,50,1)
      355("call_novel_scene(5732)")
      EndEventProcessing()
      0()
     Else()
      ShowMessageFace("arumaeruma_fc2",0,0,2,52)
      ShowMessage("【アルマエルマ】(Affection:\\V[3019])")
      ShowMessage("おあずけよ、うふふっ……")
      0()
     EndIf()
     0()
    IfPlayerPicksChoice(2,null)
     If(1,3019,0,100,1)
      355("call_novel_scene(5733)")
      EndEventProcessing()
      0()
     Else()
      ShowMessageFace("arumaeruma_fc2",0,0,2,53)
      ShowMessage("【アルマエルマ】(Affection:\\V[3019])")
      ShowMessage("おあずけよ、うふふっ……")
      0()
     EndIf()
     0()
    IfPlayerPicksChoice(3,null)
     0()
    404()
    0()
   EndIf()
   If(1,11,0,4,1)
    PictureClear(5)
    EndEventProcessing()
    0()
   EndIf()
   0()
  EndLoop()
  0()
 PAGE   2
  // condition: party contains actor #19
  0()



EVENT   10
 PAGE   1
  // condition: switch 1535 is ON
  If(1,1082,0,1,0)
   RunCommonEvent(360)
   EndEventProcessing()
   0()
  EndIf()
  PictureDisplay(5,"80_grangold_st11b",0,0,0,0,100,100,0,0)
  PictureMove(5,null,0,0,0,0,100,100,255,0,30,true)
  If(1,3535,0,500,1)
   If(1,4535,0,0,0)
    ChangeVariable(4535,4535,0,0,1)
    ShowMessageFace("grangold_fc2",0,0,2,1)
    ShowMessage("【グランゴルド王】(Affection:\\V[3535])")
    ShowMessage("どうか、これを旅に役立ててほしい。")
    250(bytes(0x04,0x08,0x6f,0x3a,0x0c,0x52,0x50,0x47,0x3a,0x3a,0x53,0x45,0x08,0x3a,0x0a,0x40,0x6e,0x61,0x6d,0x65,0x49,0x22,0x0a,0x49,0x74,0x65,0x6d,0x31,0x06,0x3a,0x06,0x45,0x54,0x3a,0x0b,0x40,0x70,0x69,0x74,0x63,0x68,0x69,0x69,0x3a,0x0c,0x40,0x76,0x6f,0x6c,0x75,0x6d,0x65,0x69,0x55))
    ChangeInventoryArmor(1092,0,0,1,false)
    0()
   EndIf()
   0()
  EndIf()
  If(1,3535,0,2000,1)
   If(1,4535,0,1,0)
    ChangeVariable(4535,4535,0,0,2)
    ShowMessageFace("grangold_fc2",0,0,2,2)
    ShowMessage("【グランゴルド王】(Affection:\\V[3535])")
    ShowMessage("どうか、これを旅に役立ててほしい。")
    250(bytes(0x04,0x08,0x6f,0x3a,0x0c,0x52,0x50,0x47,0x3a,0x3a,0x53,0x45,0x08,0x3a,0x0a,0x40,0x6e,0x61,0x6d,0x65,0x49,0x22,0x0a,0x49,0x74,0x65,0x6d,0x31,0x06,0x3a,0x06,0x45,0x54,0x3a,0x0b,0x40,0x70,0x69,0x74,0x63,0x68,0x69,0x69,0x3a,0x0c,0x40,0x76,0x6f,0x6c,0x75,0x6d,0x65,0x69,0x55))
    ChangeInventoryArmor(1192,0,0,1,false)
    0()
   EndIf()
   0()
  EndIf()
  If(1,3535,0,4000,1)
   If(1,4535,0,2,0)
    ChangeVariable(4535,4535,0,0,3)
    ShowMessageFace("grangold_fc2",0,0,2,3)
    ShowMessage("【グランゴルド王】(Affection:\\V[3535])")
    ShowMessage("どうか、これを旅に役立ててほしい。")
    250(bytes(0x04,0x08,0x6f,0x3a,0x0c,0x52,0x50,0x47,0x3a,0x3a,0x53,0x45,0x08,0x3a,0x0a,0x40,0x6e,0x61,0x6d,0x65,0x49,0x22,0x0a,0x49,0x74,0x65,0x6d,0x31,0x06,0x3a,0x06,0x45,0x54,0x3a,0x0b,0x40,0x70,0x69,0x74,0x63,0x68,0x69,0x69,0x3a,0x0c,0x40,0x76,0x6f,0x6c,0x75,0x6d,0x65,0x69,0x55))
    ChangeInventoryArmor(1597,0,0,1,false)
    0()
   EndIf()
   0()
  EndIf()
  If(1,3535,0,6000,1)
   If(1,4535,0,3,0)
    ChangeVariable(4535,4535,0,0,4)
    ShowMessageFace("grangold_fc2",0,0,2,4)
    ShowMessage("【グランゴルド王】(Affection:\\V[3535])")
    ShowMessage("どうか、これを旅に役立ててほしい。")
    250(bytes(0x04,0x08,0x6f,0x3a,0x0c,0x52,0x50,0x47,0x3a,0x3a,0x53,0x45,0x08,0x3a,0x0a,0x40,0x6e,0x61,0x6d,0x65,0x49,0x22,0x0a,0x49,0x74,0x65,0x6d,0x31,0x06,0x3a,0x06,0x45,0x54,0x3a,0x0b,0x40,0x70,0x69,0x74,0x63,0x68,0x69,0x69,0x3a,0x0c,0x40,0x76,0x6f,0x6c,0x75,0x6d,0x65,0x69,0x55))
    ChangeInventoryArmor(1030,0,0,1,false)
    0()
   EndIf()
   0()
  EndIf()
  355("actor_label_jump")
  ShowMessageFace("grangold_fc2",0,0,2,5)
  ShowMessage("【グランゴルド王】(Affection:\\V[3535])")
  ShowMessage("この城は、広くていいねぇ……")
  ShowMessage("うちの倉庫と交換しないかい？")
  JumpToLabel("メニュー")
  DefineLabel("268")
  ShowMessageFace("grangold_fc2",0,0,2,6)
  ShowMessage("【グランゴルド王】(Affection:\\V[3535])")
  ShowMessage("クィーンアント……")
  ShowMessage("我々の同盟関係、末永く続かんことを。")
  ShowMessageFace("queenant_fc1",0,0,2,7)
  ShowMessage("【アンティーヌ・アン】(Affection:\\V[3268])")
  ShowMessage("ええ、こちらこそ。")
  ShowMessage("娘達の大好物は砂糖水ですので、ちゃんと与えて下さいね。")
  ShowMessageFace("grangold_fc2",0,0,2,8)
  ShowMessage("【グランゴルド王】(Affection:\\V[3535])")
  ShowMessage("はい、もちろん……")
  ShowMessageFace("queenant_fc1",0,0,2,9)
  ShowMessage("【アンティーヌ・アン】(Affection:\\V[3268])")
  ShowMessage("それと、おやつにはカステラを与えてあげて下さいね。")
  ShowMessage("休日には、ケーキと紅茶を……")
  ShowMessageFace("grangold_fc2",0,0,2,10)
  ShowMessage("【グランゴルド王】(Affection:\\V[3535])")
  ShowMessage("それは、過保護……")
  ShowMessage("いや、娘思いだね。")
  JumpToLabel("メニュー")
  DefineLabel("530")
  ShowMessageFace("grangold_fc2",0,0,2,11)
  ShowMessage("【グランゴルド王】(Affection:\\V[3535])")
  ShowMessage("サバサ女王、お互い大変だね。")
  ShowMessage("このような姿になってしまって……")
  ShowMessageFace("sara_fc4",0,0,2,12)
  ShowMessage("【サラ】(Affection:\\V[3529])")
  ShowMessage("そう？　あたしは楽しんでるけど……うふふっ。")
  ShowMessage("淫気やピンク色のオーラも出るし。")
  ShowMessageFace("grangold_fc2",0,0,2,13)
  ShowMessage("【グランゴルド王】(Affection:\\V[3535])")
  ShowMessage("僕も、ビームや変な光は出るんだけどね……")
  ShowMessage("お忍びで遊ぶには全く不向きなんだ。")
  ShowMessageFace("sara_fc4",2,0,2,14)
  ShowMessage("【サラ】(Affection:\\V[3529])")
  ShowMessage("大変そうねぇ……")
  JumpToLabel("メニュー")
  DefineLabel("531")
  ShowMessageFace("saniria_fc2",0,0,2,15)
  ShowMessage("【サン・イリア王】(Affection:\\V[3531])")
  ShowMessage("グランゴルド王……")
  ShowMessage("お互い、人間を止める羽目になってしまったな。")
  ShowMessageFace("grangold_fc2",0,0,2,16)
  ShowMessage("【グランゴルド王】(Affection:\\V[3535])")
  ShowMessage("ええ……つくづく困ったものです。")
  ShowMessage("この体はこの体で、便利な事もあるのですけど。")
  ShowMessageFace("saniria_fc2",0,0,2,17)
  ShowMessage("【サン・イリア王】(Affection:\\V[3531])")
  ShowMessage("ところで……君もメカにならないかね？")
  ShowMessageFace("grangold_fc2",0,0,2,18)
  ShowMessage("【グランゴルド王】(Affection:\\V[3535])")
  ShowMessage("それはそうと……あなたも、光の差す方に向かいませんか？")
  If(0,6,0)
   ShowMessageFace("sonia_fc3",2,0,2,19)
   ShowMessage("【ソニア】")
   ShowMessage("互いに危ない勧誘してる！？")
   0()
  EndIf()
  JumpToLabel("メニュー")
  DefineLabel("533")
  ShowMessageFace("grangold_fc2",0,0,2,20)
  ShowMessage("【グランゴルド王】(Affection:\\V[3535])")
  ShowMessage("グランドノア女王……従姉弟同士ですが、ずいぶん久しぶりですね。")
  ShowMessage("十年ほど前の会食で会って以来、お変わりになったようで。")
  ShowMessageFace("grandnoa_fc1",2,0,2,21)
  ShowMessage("【グランドノア女王】(Affection:\\V[3533])")
  ShowMessage("あの頃は、まだ即位前でしたから。")
  ShowMessage("あなたこそ、ずいぶん変わって……というか、変形しましたね。")
  ShowMessageFace("grangold_fc2",0,0,2,22)
  ShowMessage("【グランゴルド王】(Affection:\\V[3535])")
  ShowMessage("女王陛下も、もう何段階か変形してみませんか？")
  ShowMessageFace("grandnoa_fc1",1,0,2,23)
  ShowMessage("【グランドノア女王】(Affection:\\V[3533])")
  ShowMessage("いえ……遠慮しておきます。")
  JumpToLabel("メニュー")
  DefineLabel("メニュー")
  StartLoop()
   355("unlimited_choices(11, [\"Give presents\",")
   655("\"Add to party\",")
   655("\"View present list\",\"Never mind\"])")
   If(1,11,0,0,0)
    355("present_start(535)")
    0()
   EndIf()
   If(1,11,0,1,0)
    PictureClear(5)
    355("move_actor_ex(535)")
    EndEventProcessing()
    0()
   EndIf()
   If(1,11,0,2,0)
    ShowMessageFace("",0,0,2,24)
    ShowMessage("Affection     500:\\ia[1092]")
    ShowMessage("Affection   2000:\\ia[1192]")
    ShowMessage("Affection   4000:\\ia[1597]")
    ShowMessage("Affection   6000:\\ia[1030]")
    0()
   EndIf()
   If(1,11,0,3,1)
    PictureClear(5)
    EndEventProcessing()
    0()
   EndIf()
   0()
  EndLoop()
  0()
 PAGE   2
  // condition: party contains actor #535
  0()



EVENT   11
 PAGE   1
  // condition: switch 1045 is ON
  PictureDisplay(5,"80_alicetromeria_st01",0,0,0,0,100,100,0,0)
  PictureMove(5,null,0,0,0,0,100,100,255,0,30,true)
  If(1,3045,0,10,1)
   If(1,4045,0,0,0)
    ChangeVariable(4045,4045,0,0,1)
    ShowMessageFace("alicetromeria_fc1",0,0,2,1)
    ShowMessage("【アリストロメリア】(Affection:\\V[3045])")
    ShowMessage("プレゼントです、うふふっ……")
    250(bytes(0x04,0x08,0x6f,0x3a,0x0c,0x52,0x50,0x47,0x3a,0x3a,0x53,0x45,0x08,0x3a,0x0a,0x40,0x6e,0x61,0x6d,0x65,0x49,0x22,0x0a,0x49,0x74,0x65,0x6d,0x31,0x06,0x3a,0x06,0x45,0x54,0x3a,0x0b,0x40,0x70,0x69,0x74,0x63,0x68,0x69,0x69,0x3a,0x0c,0x40,0x76,0x6f,0x6c,0x75,0x6d,0x65,0x69,0x55))
    ChangeInventory_Item(416,0,0,1)
    0()
   EndIf()
   0()
  EndIf()
  If(1,3045,0,100,1)
   If(1,4045,0,1,0)
    ChangeVariable(4045,4045,0,0,2)
    ShowMessageFace("alicetromeria_fc1",0,0,2,2)
    ShowMessage("【アリストロメリア】(Affection:\\V[3045])")
    ShowMessage("プレゼントです、うふふっ……")
    250(bytes(0x04,0x08,0x6f,0x3a,0x0c,0x52,0x50,0x47,0x3a,0x3a,0x53,0x45,0x08,0x3a,0x0a,0x40,0x6e,0x61,0x6d,0x65,0x49,0x22,0x0a,0x49,0x74,0x65,0x6d,0x31,0x06,0x3a,0x06,0x45,0x54,0x3a,0x0b,0x40,0x70,0x69,0x74,0x63,0x68,0x69,0x69,0x3a,0x0c,0x40,0x76,0x6f,0x6c,0x75,0x6d,0x65,0x69,0x55))
    ChangeInventoryArmor(1041,0,0,1,false)
    0()
   EndIf()
   0()
  EndIf()
  If(1,3045,0,500,1)
   If(1,4045,0,2,0)
    ChangeVariable(4045,4045,0,0,3)
    ShowMessageFace("alicetromeria_fc1",0,0,2,3)
    ShowMessage("【アリストロメリア】(Affection:\\V[3045])")
    ShowMessage("プレゼントです、うふふっ……")
    250(bytes(0x04,0x08,0x6f,0x3a,0x0c,0x52,0x50,0x47,0x3a,0x3a,0x53,0x45,0x08,0x3a,0x0a,0x40,0x6e,0x61,0x6d,0x65,0x49,0x22,0x0a,0x49,0x74,0x65,0x6d,0x31,0x06,0x3a,0x06,0x45,0x54,0x3a,0x0b,0x40,0x70,0x69,0x74,0x63,0x68,0x69,0x69,0x3a,0x0c,0x40,0x76,0x6f,0x6c,0x75,0x6d,0x65,0x69,0x55))
    ChangeInventoryArmor(1366,0,0,1,false)
    0()
   EndIf()
   0()
  EndIf()
  If(1,3045,0,2000,1)
   If(1,4045,0,3,0)
    ChangeVariable(4045,4045,0,0,4)
    ShowMessageFace("alicetromeria_fc1",0,0,2,4)
    ShowMessage("【アリストロメリア】(Affection:\\V[3045])")
    ShowMessage("プレゼントです、うふふっ……")
    250(bytes(0x04,0x08,0x6f,0x3a,0x0c,0x52,0x50,0x47,0x3a,0x3a,0x53,0x45,0x08,0x3a,0x0a,0x40,0x6e,0x61,0x6d,0x65,0x49,0x22,0x0a,0x49,0x74,0x65,0x6d,0x31,0x06,0x3a,0x06,0x45,0x54,0x3a,0x0b,0x40,0x70,0x69,0x74,0x63,0x68,0x69,0x69,0x3a,0x0c,0x40,0x76,0x6f,0x6c,0x75,0x6d,0x65,0x69,0x55))
    ChangeInventoryArmor(1413,0,0,1,false)
    0()
   EndIf()
   0()
  EndIf()
  If(1,3045,0,4000,1)
   If(1,4045,0,4,0)
    ChangeVariable(4045,4045,0,0,5)
    ShowMessageFace("alicetromeria_fc1",0,0,2,5)
    ShowMessage("【アリストロメリア】(Affection:\\V[3045])")
    ShowMessage("プレゼントです、うふふっ……")
    250(bytes(0x04,0x08,0x6f,0x3a,0x0c,0x52,0x50,0x47,0x3a,0x3a,0x53,0x45,0x08,0x3a,0x0a,0x40,0x6e,0x61,0x6d,0x65,0x49,0x22,0x0a,0x49,0x74,0x65,0x6d,0x31,0x06,0x3a,0x06,0x45,0x54,0x3a,0x0b,0x40,0x70,0x69,0x74,0x63,0x68,0x69,0x69,0x3a,0x0c,0x40,0x76,0x6f,0x6c,0x75,0x6d,0x65,0x69,0x55))
    ChangeInventoryArmor(1078,0,0,1,false)
    0()
   EndIf()
   0()
  EndIf()
  If(1,3045,0,6000,1)
   If(1,4045,0,5,0)
    ChangeVariable(4045,4045,0,0,6)
    ShowMessageFace("alicetromeria_fc1",0,0,2,6)
    ShowMessage("【アリストロメリア】(Affection:\\V[3045])")
    ShowMessage("プレゼントです、うふふっ……")
    250(bytes(0x04,0x08,0x6f,0x3a,0x0c,0x52,0x50,0x47,0x3a,0x3a,0x53,0x45,0x08,0x3a,0x0a,0x40,0x6e,0x61,0x6d,0x65,0x49,0x22,0x0a,0x49,0x74,0x65,0x6d,0x31,0x06,0x3a,0x06,0x45,0x54,0x3a,0x0b,0x40,0x70,0x69,0x74,0x63,0x68,0x69,0x69,0x3a,0x0c,0x40,0x76,0x6f,0x6c,0x75,0x6d,0x65,0x69,0x55))
    ChangeInventoryArmor(1668,0,0,1,false)
    0()
   EndIf()
   0()
  EndIf()
  355("actor_label_jump")
  ShowMessageFace("alicetromeria_fc1",4,0,2,7)
  ShowMessage("【アリストロメリア】(Affection:\\V[3045])")
  ShowMessage("うふふっ、一緒に遊んでくれるんですか……？")
  JumpToLabel("メニュー")
  DefineLabel("5")
  ShowMessageFace("alice_fc5",2,0,2,8)
  ShowMessage("【アリス】(Affection:\\V[3005])")
  ShowMessage("貴様は……")
  ShowMessage("いったいなぜ、素性を隠しハインリヒに同行していたのだ？")
  ShowMessageFace("alicetromeria_fc1",4,0,2,9)
  ShowMessage("【アリストロメリア】(Affection:\\V[3045])")
  ShowMessage("うふふっ、相容れない者同士が道を同じくする……")
  ShowMessage("面白いとは思いませんか？")
  ShowMessageFace("alice_fc5",2,0,2,10)
  ShowMessage("【アリス】(Affection:\\V[3005])")
  ShowMessage("それで貴様は、何を手に入れた？")
  ShowMessage("何か得るものは、感じる事はあったのか……？")
  ShowMessageFace("alicetromeria_fc1",4,0,2,11)
  ShowMessage("【アリストロメリア】(Affection:\\V[3045])")
  ShowMessage("もちろんですわ、うふふふっ……")
  ShowMessageFace("alice_fc5",3,0,2,12)
  ShowMessage("【アリス】(Affection:\\V[3005])")
  ShowMessage("……………………")
  JumpToLabel("メニュー")
  DefineLabel("26")
  ShowMessageFace("iriasu_fc4",7,0,2,13)
  ShowMessage("【イリアス】(Affection:\\V[3026])")
  ShowMessage("黒のアリス……！")
  ShowMessage("勇者ハインリヒの心に入り込んだとて、無駄な事ですよ！")
  ShowMessageFace("iriasu_fc4",7,0,2,14)
  ShowMessage("【イリアス】(Affection:\\V[3026])")
  ShowMessage("ハインリヒは将来、あなたを討ち果たします！")
  ShowMessage("これは未来の出来事として、確定しているのです！")
  ShowMessageFace("alicetromeria_fc1",4,0,2,15)
  ShowMessage("【アリストロメリア】(Affection:\\V[3045])")
  ShowMessage("ならば、なぜ貴女は笑っていないのです……？")
  ShowMessage("ハインリヒが私を討つなら、貴女は余裕の笑みを見せているのでは？")
  ShowMessageFace("iriasu_fc4",7,0,2,16)
  ShowMessage("【イリアス】(Affection:\\V[3026])")
  ShowMessage("……………………")
  ShowMessageFace("alicetromeria_fc1",4,0,2,17)
  ShowMessage("【アリストロメリア】(Affection:\\V[3045])")
  ShowMessage("何か、都合の悪い事でもありましたか？")
  ShowMessage("ハインリヒは、いったい何をしたのですか……？")
  ShowMessageFace("iriasu_fc4",7,0,2,18)
  ShowMessage("【イリアス】(Affection:\\V[3026])")
  ShowMessage("黒のアリス……")
  ShowMessage("あなたの思い通りにはなりませんよ……！")
  JumpToLabel("メニュー")
  DefineLabel("295")
  ShowMessageFace("cassandra_fc1",5,0,2,19)
  ShowMessage("【カサンドラ】(Affection:\\V[3295])")
  ShowMessage("この私、小さな頃からあなた様に憧れておりました……")
  ShowMessage("ああ、どうかサインを頂けませんか……？")
  ShowMessageFace("alicetromeria_fc1",0,0,2,20)
  ShowMessage("【アリストロメリア】(Affection:\\V[3045])")
  ShowMessage("クマちゃんが書いたものでもよろしいですか？")
  ShowMessage("……はい、どうぞ。")
  ShowMessageFace("cassandra_fc1",5,0,2,21)
  ShowMessage("【カサンドラ】(Affection:\\V[3295])")
  ShowMessage("ああ、素敵……")
  ShowMessage("ネーレイド家の家宝に致しますわ……")
  ShowMessageFace("emily_fc1",0,0,2,22)
  ShowMessage("【エミリ】(Affection:\\V[3294])")
  ShowMessage("ねぇ、お母様……この「くま」って書いた色紙、なにー？")
  ShowMessage("汚い字だし、捨てていい？")
  ShowMessageFace("cassandra_fc1",7,0,2,23)
  ShowMessage("【カサンドラ】(Affection:\\V[3295])")
  ShowMessage("ダメーー！")
  JumpToLabel("メニュー")
  DefineLabel("341")
  ShowMessageFace("alicetromeria_fc1",0,0,2,24)
  ShowMessage("【アリストロメリア】(Affection:\\V[3045])")
  ShowMessage("リリス、リリム、この世界はどうですか？")
  ShowMessage("とても愉しいでしょう……？")
  ShowMessageFace("lilith_fc1",0,0,2,25)
  ShowMessage("【リリス】(Affection:\\V[3341])")
  ShowMessage("ええ、アリストロメリア様……")
  ShowMessage("まるで、不思議の国に迷い込んでしまったみたい……")
  ShowMessageFace("lilith_fc1",0,0,2,26)
  ShowMessage("【リリム】(Affection:\\V[3341])")
  ShowMessage("ですが、アリストロメリア様……")
  ShowMessage("この世界で、パーティはなさいませんの？")
  ShowMessageFace("alicetromeria_fc1",4,0,2,27)
  ShowMessage("【アリストロメリア】(Affection:\\V[3045])")
  ShowMessage("すでに、盛大なパーティのまっただ中の様子。")
  ShowMessage("この世界では、楽しむ側となりましょう……")
  ShowMessageFace("lilith_fc1",0,0,2,28)
  ShowMessage("【リリス】(Affection:\\V[3341])")
  ShowMessage("うふふっ、そういうのも素敵……")
  ShowMessageFace("lilith_fc1",0,0,2,29)
  ShowMessage("【リリム】(Affection:\\V[3341])")
  ShowMessage("素敵な催し、たっぷりと楽しみましょう……")
  JumpToLabel("メニュー")
  DefineLabel("370")
  ShowMessageFace("alicetromeria_fc1",4,0,2,30)
  ShowMessage("【アリストロメリア】(Affection:\\V[3045])")
  ShowMessage("うふふっ、いたずらな妖精……")
  ShowMessageFace("cirqueb_fc2",0,0,2,31)
  ShowMessage("【タイタニア】(Affection:\\V[3370])")
  ShowMessage("あなた、魔王よね？")
  ShowMessage("なんで魔法使いの格好をしてるのぉ？")
  ShowMessageFace("alicetromeria_fc1",4,0,2,32)
  ShowMessage("【アリストロメリア】(Affection:\\V[3045])")
  ShowMessage("もちろん、いたずらのためですよ……うふふふふっ。")
  ShowMessageFace("cirqueb_fc2",1,0,2,33)
  ShowMessage("【タイタニア】(Affection:\\V[3370])")
  ShowMessage("それ、楽しそ～♪")
  ShowMessage("あたしもやってみようかな……？")
  JumpToLabel("メニュー")
  DefineLabel("538")
  ShowMessageFace("heinrich_fc1",1,0,2,34)
  ShowMessage("【ハインリヒ】(Affection:\\V[3538])")
  ShowMessage("今度は、異世界を一緒に冒険する事になるとは……")
  ShowMessage("つくづく数奇な運命だね、アリストロメリア。")
  ShowMessageFace("alicetromeria_fc1",4,0,2,35)
  ShowMessage("【アリストロメリア】(Affection:\\V[3045])")
  ShowMessage("うふふっ、素敵ですわね……")
  ShowMessage("どこまでも、共に征きましょう。")
  ShowMessageFace("heinrich_fc1",1,0,2,36)
  ShowMessage("【ハインリヒ】(Affection:\\V[3538])")
  ShowMessage("ああ！　共に戦い抜こう！")
  ShowMessageFace("alicetromeria_fc1",4,0,2,37)
  ShowMessage("【アリストロメリア】(Affection:\\V[3045])")
  ShowMessage("うふふふっ……いつまでも、共にいますわ。")
  JumpToLabel("メニュー")
  DefineLabel("メニュー")
  StartLoop()
   355("unlimited_choices(11, [\"Give presents\",")
   655("\"Add to party\",")
   655("\"View present list\",\"Request\",")
   655("\"Never mind\"])")
   If(1,11,0,0,0)
    355("present_start(45)")
    0()
   EndIf()
   If(1,11,0,1,0)
    PictureClear(5)
    355("move_actor_ex(45)")
    EndEventProcessing()
    0()
   EndIf()
   If(1,11,0,2,0)
    ShowMessageFace("",0,0,2,38)
    ShowMessage("Affection       10:\\ii[416]")
    ShowMessage("Affection     100:\\ia[1041]")
    ShowMessage("Affection     500:\\ia[1366]")
    ShowMessage("Affection   2000:\\ia[1413]")
    ShowMessageFace("",0,0,2,39)
    ShowMessage("Affection   4000:\\ia[1078]")
    ShowMessage("Affection   6000:\\ia[1668]")
    0()
   EndIf()
   If(1,11,0,3,0)
    PictureClear(5)
    ShowMessageFace("",0,0,2,40)
    ShowMessage("Ask her for what? (Affection:\\V[3045])")
    ShowChoices(strings("Blowjob(Affection:10)","Never mind"),2)
    IfPlayerPicksChoice(0,null)
     If(1,3045,0,10,1)
      355("call_novel_scene(4756)")
      EndEventProcessing()
      0()
     Else()
      ShowMessageFace("alicetromeria_fc1",4,0,2,41)
      ShowMessage("【アリストロメリア】(Affection:\\V[3045])")
      ShowMessage("また今度にしましょう、うふふっ……")
      0()
     EndIf()
     0()
    IfPlayerPicksChoice(1,null)
     0()
    404()
    0()
   EndIf()
   If(1,11,0,4,1)
    PictureClear(5)
    EndEventProcessing()
    0()
   EndIf()
   0()
  EndLoop()
  0()
 PAGE   2
  // condition: party contains actor #45
  0()



EVENT   12
 PAGE   1
  // condition: switch 1233 is ON
  PictureDisplay(5,"80_mefist_st01",0,0,0,0,100,100,0,0)
  PictureMove(5,null,0,0,0,0,100,100,255,0,30,true)
  If(1,3233,0,100,1)
   If(1,4233,0,0,0)
    ChangeVariable(4233,4233,0,0,1)
    ShowMessageFace("mefist_fc1",0,0,2,1)
    ShowMessage("【メフィスト】(Affection:\\V[3233])")
    ShowMessage("これが役に立つはずです……")
    250(bytes(0x04,0x08,0x6f,0x3a,0x0c,0x52,0x50,0x47,0x3a,0x3a,0x53,0x45,0x08,0x3a,0x0a,0x40,0x6e,0x61,0x6d,0x65,0x49,0x22,0x0a,0x49,0x74,0x65,0x6d,0x31,0x06,0x3a,0x06,0x45,0x54,0x3a,0x0b,0x40,0x70,0x69,0x74,0x63,0x68,0x69,0x69,0x3a,0x0c,0x40,0x76,0x6f,0x6c,0x75,0x6d,0x65,0x69,0x55))
    ChangeInventoryArmor(1171,0,0,1,false)
    0()
   EndIf()
   0()
  EndIf()
  If(1,3233,0,500,1)
   If(1,4233,0,1,0)
    ChangeVariable(4233,4233,0,0,2)
    ShowMessageFace("mefist_fc1",0,0,2,2)
    ShowMessage("【メフィスト】(Affection:\\V[3233])")
    ShowMessage("これが役に立つはずです……")
    250(bytes(0x04,0x08,0x6f,0x3a,0x0c,0x52,0x50,0x47,0x3a,0x3a,0x53,0x45,0x08,0x3a,0x0a,0x40,0x6e,0x61,0x6d,0x65,0x49,0x22,0x0a,0x49,0x74,0x65,0x6d,0x31,0x06,0x3a,0x06,0x45,0x54,0x3a,0x0b,0x40,0x70,0x69,0x74,0x63,0x68,0x69,0x69,0x3a,0x0c,0x40,0x76,0x6f,0x6c,0x75,0x6d,0x65,0x69,0x55))
    ChangeInventoryArmor(1354,0,0,1,false)
    0()
   EndIf()
   0()
  EndIf()
  If(1,3233,0,2000,1)
   If(1,4233,0,2,0)
    ChangeVariable(4233,4233,0,0,3)
    ShowMessageFace("mefist_fc1",0,0,2,3)
    ShowMessage("【メフィスト】(Affection:\\V[3233])")
    ShowMessage("これが役に立つはずです……")
    250(bytes(0x04,0x08,0x6f,0x3a,0x0c,0x52,0x50,0x47,0x3a,0x3a,0x53,0x45,0x08,0x3a,0x0a,0x40,0x6e,0x61,0x6d,0x65,0x49,0x22,0x0a,0x49,0x74,0x65,0x6d,0x31,0x06,0x3a,0x06,0x45,0x54,0x3a,0x0b,0x40,0x70,0x69,0x74,0x63,0x68,0x69,0x69,0x3a,0x0c,0x40,0x76,0x6f,0x6c,0x75,0x6d,0x65,0x69,0x55))
    ChangeInventoryArmor(1028,0,0,1,false)
    0()
   EndIf()
   0()
  EndIf()
  If(1,3233,0,4000,1)
   If(1,4233,0,3,0)
    ChangeVariable(4233,4233,0,0,4)
    ShowMessageFace("mefist_fc1",0,0,2,4)
    ShowMessage("【メフィスト】(Affection:\\V[3233])")
    ShowMessage("これが役に立つはずです……")
    250(bytes(0x04,0x08,0x6f,0x3a,0x0c,0x52,0x50,0x47,0x3a,0x3a,0x53,0x45,0x08,0x3a,0x0a,0x40,0x6e,0x61,0x6d,0x65,0x49,0x22,0x0a,0x49,0x74,0x65,0x6d,0x31,0x06,0x3a,0x06,0x45,0x54,0x3a,0x0b,0x40,0x70,0x69,0x74,0x63,0x68,0x69,0x69,0x3a,0x0c,0x40,0x76,0x6f,0x6c,0x75,0x6d,0x65,0x69,0x55))
    ChangeInventoryArmor(1029,0,0,1,false)
    0()
   EndIf()
   0()
  EndIf()
  355("actor_label_jump")
  ShowMessageFace("mefist_fc1",0,0,2,5)
  ShowMessage("【メフィスト】(Affection:\\V[3233])")
  ShowMessage("教育し直したい仲間が、たくさんいますね……")
  ShowMessage("ここに学園を作っていいですか？")
  JumpToLabel("メニュー")
  DefineLabel("121")
  ShowMessageFace("page65537_fc1",0,0,2,6)
  ShowMessage("【コーネリア】(Affection:\\V[3121])")
  ShowMessage("メフィスト……")
  ShowMessage("あなた、魔王城図書館で借りた本を返していませんよ？")
  ShowMessageFace("mefist_fc1",0,0,2,7)
  ShowMessage("【メフィスト】(Affection:\\V[3233])")
  ShowMessage("そう言えば、すっかり忘れていましたね。")
  ShowMessage("複製しますので、もう少し待って頂けません？")
  ShowMessageFace("page65537_fc1",0,0,2,8)
  ShowMessage("【コーネリア】(Affection:\\V[3121])")
  ShowMessage("まったく……それが教職にある者の言葉ですか。")
  ShowMessageFace("mefist_fc1",0,0,2,9)
  ShowMessage("【メフィスト】(Affection:\\V[3233])")
  ShowMessage("奪えるものは総取りにしろ、というのが私の教えですので……")
  ShowMessageFace("page65537_fc1",0,0,2,10)
  ShowMessage("【コーネリア】(Affection:\\V[3121])")
  ShowMessage("なるほど、あなたは図書館出入禁止です。")
  ShowMessageFace("mefist_fc1",0,0,2,11)
  ShowMessage("【メフィスト】(Affection:\\V[3233])")
  ShowMessage("……このような事もあります。")
  ShowMessage("生徒の皆さん、欲のかきすぎにはご注意を。")
  JumpToLabel("メニュー")
  DefineLabel("163")
  ShowMessageFace("lily_fc1",3,0,2,12)
  ShowMessage("【リリィ】(Affection:\\V[3163])")
  ShowMessage("あなたが、メフィスト……")
  ShowMessage("ずいぶん高名な魔導師のようね。")
  ShowMessageFace("mefist_fc1",0,0,2,13)
  ShowMessage("【メフィスト】(Affection:\\V[3233])")
  ShowMessage("あなたは若いから知らないでしょう。")
  ShowMessage("先代魔王の時代において、私こそが魔導の担い手でした。")
  ShowMessageFace("lily_fc1",3,0,2,14)
  ShowMessage("【リリィ】(Affection:\\V[3163])")
  ShowMessage("噂通り、性格も悪そうね……")
  ShowMessage("魔導よりも悪事の方が得意なんじゃない？")
  ShowMessageFace("mefist_fc1",0,0,2,15)
  ShowMessage("【メフィスト】(Affection:\\V[3233])")
  ShowMessage("その両者は、事実上同じものですよ。")
  ShowMessage("魔導とは悪事に他ならず、人を幸せにもしません……")
  ShowMessageFace("lily_fc1",3,0,2,16)
  ShowMessage("【リリィ】(Affection:\\V[3163])")
  ShowMessage("ふん、当て付けかしら……？")
  JumpToLabel("メニュー")
  DefineLabel("226")
  ShowMessageFace("sirohebisama_fc1",0,0,2,17)
  ShowMessage("【白蛇様】(Affection:\\V[3226])")
  ShowMessage("メフィストか……")
  ShowMessage("15世の腹心たるお主が、人間の王家に潜り込むとはのう。")
  ShowMessageFace("mefist_fc1",0,0,2,18)
  ShowMessage("【メフィスト】(Affection:\\V[3233])")
  ShowMessage("それも、契約あってのこと……")
  ShowMessage("誰を謀ったわけでもありませんよ。")
  ShowMessageFace("sirohebisama_fc1",0,0,2,19)
  ShowMessage("【白蛇様】(Affection:\\V[3226])")
  ShowMessage("お主は昔から、契約や約定にはこだわっていたな。")
  ShowMessage("まったく、陰険なのに律儀な奴よ……")
  ShowMessageFace("mefist_fc1",0,0,2,20)
  ShowMessage("【メフィスト】(Affection:\\V[3233])")
  ShowMessage("妖魔としての本分、見誤らないだけですよ……")
  JumpToLabel("メニュー")
  DefineLabel("231")
  ShowMessageFace("mefist_fc1",0,0,2,21)
  ShowMessage("【メフィスト】(Affection:\\V[3233])")
  ShowMessage("あなた達、自由研究は何をしていますか……？")
  ShowMessageFace("m_batterfly_fc1",0,0,2,22)
  ShowMessage("【マジカルアゲハ】(Affection:\\V[3231])")
  ShowMessage("精液集め！")
  ShowMessageFace("m_dragonfly_fc1",0,0,2,23)
  ShowMessage("【マジカルフライ】(Affection:\\V[3231])")
  ShowMessage("昆虫採集……")
  ShowMessageFace("m_tento_fc1",0,0,2,24)
  ShowMessage("【マジカルテントウ】(Affection:\\V[3231])")
  ShowMessage("食べ歩き♪")
  ShowMessageFace("mefist_fc1",2,0,2,25)
  ShowMessage("【メフィスト】(Affection:\\V[3233])")
  ShowMessage("まったく、困ったものですね……")
  JumpToLabel("メニュー")
  DefineLabel("232")
  ShowMessageFace("mefist_fc1",0,0,2,26)
  ShowMessage("【メフィスト】(Affection:\\V[3233])")
  ShowMessage("あなた達、最近はどんな本を読んでいますか……？")
  ShowMessageFace("m_elf_fc1",0,0,2,27)
  ShowMessage("【マジカルエルフ】(Affection:\\V[3232])")
  ShowMessage("『下克上のススメ』。")
  ShowMessageFace("m_succubus_fc1",0,0,2,28)
  ShowMessage("【マジカルサキュバス】(Affection:\\V[3232])")
  ShowMessage("『魔導顧問殺し』……")
  ShowMessageFace("m_fairy_fc1",1,0,2,29)
  ShowMessage("【マジカルピクシー】(Affection:\\V[3232])")
  ShowMessage("メフィスト先生が若いときに書いた恋愛日記！")
  ShowMessageFace("mefist_fc1",2,0,2,30)
  ShowMessage("【メフィスト】(Affection:\\V[3233])")
  ShowMessage("まったく、困ったものですね……")
  JumpToLabel("メニュー")
  DefineLabel("262")
  ShowMessageFace("mefist_fc1",0,0,2,31)
  ShowMessage("【メフィスト】(Affection:\\V[3233])")
  ShowMessage("これが、グランゴルド製のゴーレムですか。")
  ShowMessage("なるほど、非常に完成度が高いですね……")
  ShowMessageFace("golem_fc1",0,0,2,32)
  ShowMessage("【エメス】(Affection:\\V[3262])")
  ShowMessage("マスターですか？")
  ShowMessage("ご命令を……")
  ShowMessageFace("mefist_fc1",0,0,2,33)
  ShowMessage("【メフィスト】(Affection:\\V[3233])")
  ShowMessage("では、私に絶対の忠誠を……")
  ShowMessageFace("sonia_fc2",5,0,2,34)
  ShowMessage("【ソニア】")
  ShowMessage("ちょっと！　何やってんの！")
  JumpToLabel("メニュー")
  DefineLabel("286")
  ShowMessageFace("witchs_fc1",0,0,2,35)
  ShowMessage("【ウィッチ】(Affection:\\V[3286])")
  ShowMessage("世界でも高名な魔導師メフィスト……")
  ShowMessage("その魔導の粋、ぜひ見せてほしいわね。")
  ShowMessageFace("mefist_fc1",0,0,2,36)
  ShowMessage("【メフィスト】(Affection:\\V[3233])")
  ShowMessage("あなたこそ、ずいぶん名高いではありませんか。")
  ShowMessage("淫魔の中で最も優れた魔導師とか……")
  ShowMessageFace("witchs_fc1",0,0,2,37)
  ShowMessage("【ウィッチ】(Affection:\\V[3286])")
  ShowMessage("一緒に戦えるというのも、面白いわね。")
  ShowMessage("仲間として、魔導の技を競い合いましょう。")
  ShowMessageFace("mefist_fc1",0,0,2,38)
  ShowMessage("【メフィスト】(Affection:\\V[3233])")
  ShowMessage("ええ、私も楽しみです。")
  ShowMessage("どうぞお手柔らかに……ふふっ。")
  JumpToLabel("メニュー")
  DefineLabel("295")
  ShowMessageFace("cassandra_fc1",5,0,2,39)
  ShowMessage("【カサンドラ】(Affection:\\V[3295])")
  ShowMessage("あら、メフィスト……")
  ShowMessage("相変わらず、性悪そうですわね。")
  ShowMessageFace("mefist_fc1",0,0,2,40)
  ShowMessage("【メフィスト】(Affection:\\V[3233])")
  ShowMessage("おや、カサンドラ……")
  ShowMessage("最近すっかり名を落としたようですね。")
  ShowMessageFace("cassandra_fc1",5,0,2,41)
  ShowMessage("【カサンドラ】(Affection:\\V[3295])")
  ShowMessage("うふふっ、面白いわ……")
  ShowMessageFace("mefist_fc1",0,0,2,42)
  ShowMessage("【メフィスト】(Affection:\\V[3233])")
  ShowMessage("面白いでしょう、ふふふっ……")
  JumpToLabel("メニュー")
  DefineLabel("533")
  ShowMessageFace("mefist_fc1",0,0,2,43)
  ShowMessage("【メフィスト】(Affection:\\V[3233])")
  ShowMessage("女王陛下……なぜ私を、ここまで信用するのです？")
  ShowMessage("土壇場で裏切られるなどと考えないのでしょうか？")
  ShowMessageFace("grandnoa_fc1",0,0,2,44)
  ShowMessage("【グランドノア女王】(Affection:\\V[3533])")
  ShowMessage("信頼はしていませんが、信用はしていますよ。")
  ShowMessage("あなたのプライドが、裏切りなど許さないのでしょう？")
  ShowMessageFace("mefist_fc1",0,0,2,45)
  ShowMessage("【メフィスト】(Affection:\\V[3233])")
  ShowMessage("なるほど、ずいぶん人を見る目があるのですね。")
  ShowMessage("私を重んじるのは、信頼ではなく価値観を見抜いた上ですか。")
  ShowMessageFace("grandnoa_fc1",0,0,2,46)
  ShowMessage("【グランドノア女王】(Affection:\\V[3533])")
  ShowMessage("あなたを信じていると……そう言ってほしかったですか？")
  ShowMessageFace("mefist_fc1",0,0,2,47)
  ShowMessage("【メフィスト】(Affection:\\V[3233])")
  ShowMessage("ええ、もちろん。")
  JumpToLabel("メニュー")
  DefineLabel("メニュー")
  StartLoop()
   355("unlimited_choices(11, [\"Give presents\",")
   655("\"Add to party\",")
   655("\"View present list\",\"Request\",")
   655("\"Change form\",\"Never mind\"])")
   If(1,11,0,0,0)
    355("present_start(233)")
    0()
   EndIf()
   If(1,11,0,1,0)
    PictureClear(5)
    355("move_actor_ex(233)")
    EndEventProcessing()
    0()
   EndIf()
   If(1,11,0,2,0)
    ShowMessageFace("",0,0,2,48)
    ShowMessage("Affection     100:\\ia[1171]")
    ShowMessage("Affection     500:\\ia[1354]")
    ShowMessage("Affection   2000:\\ia[1028]")
    ShowMessage("Affection   4000:\\ia[1029]")
    0()
   EndIf()
   If(1,11,0,3,0)
    PictureClear(5)
    ShowMessageFace("",0,0,2,49)
    ShowMessage("Ask her for what? (Affection:\\V[3233])")
    ShowChoices(strings("Semen Squeezing Lesson(Affection:10)","Never mind"),2)
    IfPlayerPicksChoice(0,null)
     If(1,3233,0,10,1)
      355("call_novel_scene(4981)")
      EndEventProcessing()
      0()
     Else()
      ShowMessageFace("mefist_fc1",0,0,2,50)
      ShowMessage("【メフィスト】(Affection:\\V[3233])")
      ShowMessage("せっかくですが、またの機会に。")
      0()
     EndIf()
     0()
    IfPlayerPicksChoice(1,null)
     0()
    404()
    0()
   EndIf()
   If(1,11,0,4,0)
    ShowMessageFace("",0,0,2,51)
    ShowMessage("どの形態に変化させますか？")
    ShowChoices(strings("メフィスト（妖魔）","メフィスト（巨蛇）"),1)
    IfPlayerPicksChoice(0,null)
     PictureClear(5)
     EndEventProcessing()
     0()
    IfPlayerPicksChoice(1,null)
     355("persona_change(391)")
     PictureClear(5)
     EndEventProcessing()
     0()
    404()
    0()
   EndIf()
   If(1,11,0,5,1)
    PictureClear(5)
    EndEventProcessing()
    0()
   EndIf()
   0()
  EndLoop()
  0()
 PAGE   2
  // condition: switch 1391 is ON
  PictureDisplay(5,"80_mefist_st11",0,0,0,0,100,100,0,0)
  PictureMove(5,null,0,0,0,0,100,100,255,0,30,true)
  If(1,3233,0,100,1)
   If(1,4233,0,0,0)
    ChangeVariable(4233,4233,0,0,1)
    ShowMessageFace("mefist_fc2",0,0,2,1)
    ShowMessage("【メフィスト】(Affection:\\V[3233])")
    ShowMessage("これが役に立つはずです……")
    250(bytes(0x04,0x08,0x6f,0x3a,0x0c,0x52,0x50,0x47,0x3a,0x3a,0x53,0x45,0x08,0x3a,0x0a,0x40,0x6e,0x61,0x6d,0x65,0x49,0x22,0x0a,0x49,0x74,0x65,0x6d,0x31,0x06,0x3a,0x06,0x45,0x54,0x3a,0x0b,0x40,0x70,0x69,0x74,0x63,0x68,0x69,0x69,0x3a,0x0c,0x40,0x76,0x6f,0x6c,0x75,0x6d,0x65,0x69,0x55))
    ChangeInventoryArmor(1171,0,0,1,false)
    0()
   EndIf()
   0()
  EndIf()
  If(1,3233,0,500,1)
   If(1,4233,0,1,0)
    ChangeVariable(4233,4233,0,0,2)
    ShowMessageFace("mefist_fc2",0,0,2,2)
    ShowMessage("【メフィスト】(Affection:\\V[3233])")
    ShowMessage("これが役に立つはずです……")
    250(bytes(0x04,0x08,0x6f,0x3a,0x0c,0x52,0x50,0x47,0x3a,0x3a,0x53,0x45,0x08,0x3a,0x0a,0x40,0x6e,0x61,0x6d,0x65,0x49,0x22,0x0a,0x49,0x74,0x65,0x6d,0x31,0x06,0x3a,0x06,0x45,0x54,0x3a,0x0b,0x40,0x70,0x69,0x74,0x63,0x68,0x69,0x69,0x3a,0x0c,0x40,0x76,0x6f,0x6c,0x75,0x6d,0x65,0x69,0x55))
    ChangeInventoryArmor(1354,0,0,1,false)
    0()
   EndIf()
   0()
  EndIf()
  If(1,3233,0,2000,1)
   If(1,4233,0,2,0)
    ChangeVariable(4233,4233,0,0,3)
    ShowMessageFace("mefist_fc2",0,0,2,3)
    ShowMessage("【メフィスト】(Affection:\\V[3233])")
    ShowMessage("これが役に立つはずです……")
    250(bytes(0x04,0x08,0x6f,0x3a,0x0c,0x52,0x50,0x47,0x3a,0x3a,0x53,0x45,0x08,0x3a,0x0a,0x40,0x6e,0x61,0x6d,0x65,0x49,0x22,0x0a,0x49,0x74,0x65,0x6d,0x31,0x06,0x3a,0x06,0x45,0x54,0x3a,0x0b,0x40,0x70,0x69,0x74,0x63,0x68,0x69,0x69,0x3a,0x0c,0x40,0x76,0x6f,0x6c,0x75,0x6d,0x65,0x69,0x55))
    ChangeInventoryArmor(1028,0,0,1,false)
    0()
   EndIf()
   0()
  EndIf()
  If(1,3233,0,4000,1)
   If(1,4233,0,3,0)
    ChangeVariable(4233,4233,0,0,4)
    ShowMessageFace("mefist_fc2",0,0,2,4)
    ShowMessage("【メフィスト】(Affection:\\V[3233])")
    ShowMessage("これが役に立つはずです……")
    250(bytes(0x04,0x08,0x6f,0x3a,0x0c,0x52,0x50,0x47,0x3a,0x3a,0x53,0x45,0x08,0x3a,0x0a,0x40,0x6e,0x61,0x6d,0x65,0x49,0x22,0x0a,0x49,0x74,0x65,0x6d,0x31,0x06,0x3a,0x06,0x45,0x54,0x3a,0x0b,0x40,0x70,0x69,0x74,0x63,0x68,0x69,0x69,0x3a,0x0c,0x40,0x76,0x6f,0x6c,0x75,0x6d,0x65,0x69,0x55))
    ChangeInventoryArmor(1029,0,0,1,false)
    0()
   EndIf()
   0()
  EndIf()
  355("actor_label_jump")
  ShowMessageFace("mefist_fc2",0,0,2,5)
  ShowMessage("【メフィスト】(Affection:\\V[3233])")
  ShowMessage("教育し直したい仲間が、たくさんいますね……")
  ShowMessage("ここに学園を作っていいですか？")
  JumpToLabel("メニュー")
  DefineLabel("121")
  ShowMessageFace("page65537_fc1",0,0,2,6)
  ShowMessage("【コーネリア】(Affection:\\V[3121])")
  ShowMessage("メフィスト……")
  ShowMessage("あなた、魔王城図書館で借りた本を返していませんよ？")
  ShowMessageFace("mefist_fc2",0,0,2,7)
  ShowMessage("【メフィスト】(Affection:\\V[3233])")
  ShowMessage("そう言えば、すっかり忘れていましたね。")
  ShowMessage("複製しますので、もう少し待って頂けません？")
  ShowMessageFace("page65537_fc1",0,0,2,8)
  ShowMessage("【コーネリア】(Affection:\\V[3121])")
  ShowMessage("まったく……それが教職にある者の言葉ですか。")
  ShowMessageFace("mefist_fc2",0,0,2,9)
  ShowMessage("【メフィスト】(Affection:\\V[3233])")
  ShowMessage("奪えるものは総取りにしろ、というのが私の教えですので……")
  ShowMessageFace("page65537_fc1",0,0,2,10)
  ShowMessage("【コーネリア】(Affection:\\V[3121])")
  ShowMessage("なるほど、あなたは図書館出入禁止です。")
  ShowMessageFace("mefist_fc2",0,0,2,11)
  ShowMessage("【メフィスト】(Affection:\\V[3233])")
  ShowMessage("……このような事もあります。")
  ShowMessage("生徒の皆さん、欲のかきすぎにはご注意を。")
  JumpToLabel("メニュー")
  DefineLabel("163")
  ShowMessageFace("lily_fc1",3,0,2,12)
  ShowMessage("【リリィ】(Affection:\\V[3163])")
  ShowMessage("あなたが、メフィスト……")
  ShowMessage("ずいぶん高名な魔導師のようね。")
  ShowMessageFace("mefist_fc2",0,0,2,13)
  ShowMessage("【メフィスト】(Affection:\\V[3233])")
  ShowMessage("あなたは若いから知らないでしょう。")
  ShowMessage("先代魔王の時代において、私こそが魔導の担い手でした。")
  ShowMessageFace("lily_fc1",3,0,2,14)
  ShowMessage("【リリィ】(Affection:\\V[3163])")
  ShowMessage("噂通り、性格も悪そうね……")
  ShowMessage("魔導よりも悪事の方が得意なんじゃない？")
  ShowMessageFace("mefist_fc2",0,0,2,15)
  ShowMessage("【メフィスト】(Affection:\\V[3233])")
  ShowMessage("その両者は、事実上同じものですよ。")
  ShowMessage("魔導とは悪事に他ならず、人を幸せにもしません……")
  ShowMessageFace("lily_fc1",3,0,2,16)
  ShowMessage("【リリィ】(Affection:\\V[3163])")
  ShowMessage("ふん、当て付けかしら……？")
  JumpToLabel("メニュー")
  DefineLabel("226")
  ShowMessageFace("sirohebisama_fc1",0,0,2,17)
  ShowMessage("【白蛇様】(Affection:\\V[3226])")
  ShowMessage("メフィストか……")
  ShowMessage("15世の腹心たるお主が、人間の王家に潜り込むとはのう。")
  ShowMessageFace("mefist_fc2",0,0,2,18)
  ShowMessage("【メフィスト】(Affection:\\V[3233])")
  ShowMessage("それも、契約あってのこと……")
  ShowMessage("誰を謀ったわけでもありませんよ。")
  ShowMessageFace("sirohebisama_fc1",0,0,2,19)
  ShowMessage("【白蛇様】(Affection:\\V[3226])")
  ShowMessage("お主は昔から、契約や約定にはこだわっていたな。")
  ShowMessage("まったく、陰険なのに律儀な奴よ……")
  ShowMessageFace("mefist_fc2",0,0,2,20)
  ShowMessage("【メフィスト】(Affection:\\V[3233])")
  ShowMessage("妖魔としての本分、見誤らないだけですよ……")
  JumpToLabel("メニュー")
  DefineLabel("231")
  ShowMessageFace("mefist_fc2",0,0,2,21)
  ShowMessage("【メフィスト】(Affection:\\V[3233])")
  ShowMessage("あなた達、自由研究は何をしていますか……？")
  ShowMessageFace("m_batterfly_fc1",0,0,2,22)
  ShowMessage("【マジカルアゲハ】(Affection:\\V[3231])")
  ShowMessage("精液集め！")
  ShowMessageFace("m_dragonfly_fc1",0,0,2,23)
  ShowMessage("【マジカルフライ】(Affection:\\V[3231])")
  ShowMessage("昆虫採集……")
  ShowMessageFace("m_tento_fc1",0,0,2,24)
  ShowMessage("【マジカルテントウ】(Affection:\\V[3231])")
  ShowMessage("食べ歩き♪")
  ShowMessageFace("mefist_fc2",2,0,2,25)
  ShowMessage("【メフィスト】(Affection:\\V[3233])")
  ShowMessage("まったく、困ったものですね……")
  JumpToLabel("メニュー")
  DefineLabel("232")
  ShowMessageFace("mefist_fc2",0,0,2,26)
  ShowMessage("【メフィスト】(Affection:\\V[3233])")
  ShowMessage("あなた達、最近はどんな本を読んでいますか……？")
  ShowMessageFace("m_elf_fc1",0,0,2,27)
  ShowMessage("【マジカルエルフ】(Affection:\\V[3232])")
  ShowMessage("『下克上のススメ』。")
  ShowMessageFace("m_succubus_fc1",0,0,2,28)
  ShowMessage("【マジカルサキュバス】(Affection:\\V[3232])")
  ShowMessage("『魔導顧問殺し』……")
  ShowMessageFace("m_fairy_fc1",1,0,2,29)
  ShowMessage("【マジカルピクシー】(Affection:\\V[3232])")
  ShowMessage("メフィスト先生が若いときに書いた恋愛日記！")
  ShowMessageFace("mefist_fc2",2,0,2,30)
  ShowMessage("【メフィスト】(Affection:\\V[3233])")
  ShowMessage("まったく、困ったものですね……")
  JumpToLabel("メニュー")
  DefineLabel("262")
  ShowMessageFace("mefist_fc2",0,0,2,31)
  ShowMessage("【メフィスト】(Affection:\\V[3233])")
  ShowMessage("これが、グランゴルド製のゴーレムですか。")
  ShowMessage("なるほど、非常に完成度が高いですね……")
  ShowMessageFace("golem_fc1",0,0,2,32)
  ShowMessage("【エメス】(Affection:\\V[3262])")
  ShowMessage("マスターですか？")
  ShowMessage("ご命令を……")
  ShowMessageFace("mefist_fc2",0,0,2,33)
  ShowMessage("【メフィスト】(Affection:\\V[3233])")
  ShowMessage("では、私に絶対の忠誠を……")
  ShowMessageFace("sonia_fc2",5,0,2,34)
  ShowMessage("【ソニア】")
  ShowMessage("ちょっと！　何やってんの！")
  JumpToLabel("メニュー")
  DefineLabel("286")
  ShowMessageFace("witchs_fc1",0,0,2,35)
  ShowMessage("【ウィッチ】(Affection:\\V[3286])")
  ShowMessage("世界でも高名な魔導師メフィスト……")
  ShowMessage("その魔導の粋、ぜひ見せてほしいわね。")
  ShowMessageFace("mefist_fc2",0,0,2,36)
  ShowMessage("【メフィスト】(Affection:\\V[3233])")
  ShowMessage("あなたこそ、ずいぶん名高いではありませんか。")
  ShowMessage("淫魔の中で最も優れた魔導師とか……")
  ShowMessageFace("witchs_fc1",0,0,2,37)
  ShowMessage("【ウィッチ】(Affection:\\V[3286])")
  ShowMessage("一緒に戦えるというのも、面白いわね。")
  ShowMessage("仲間として、魔導の技を競い合いましょう。")
  ShowMessageFace("mefist_fc2",0,0,2,38)
  ShowMessage("【メフィスト】(Affection:\\V[3233])")
  ShowMessage("ええ、私も楽しみです。")
  ShowMessage("どうぞお手柔らかに……ふふっ。")
  JumpToLabel("メニュー")
  DefineLabel("295")
  ShowMessageFace("cassandra_fc1",5,0,2,39)
  ShowMessage("【カサンドラ】(Affection:\\V[3295])")
  ShowMessage("あら、メフィスト……")
  ShowMessage("相変わらず、性悪そうですわね。")
  ShowMessageFace("mefist_fc2",0,0,2,40)
  ShowMessage("【メフィスト】(Affection:\\V[3233])")
  ShowMessage("おや、カサンドラ……")
  ShowMessage("最近すっかり名を落としたようですね。")
  ShowMessageFace("cassandra_fc1",5,0,2,41)
  ShowMessage("【カサンドラ】(Affection:\\V[3295])")
  ShowMessage("うふふっ、面白いわ……")
  ShowMessageFace("mefist_fc2",0,0,2,42)
  ShowMessage("【メフィスト】(Affection:\\V[3233])")
  ShowMessage("面白いでしょう、ふふふっ……")
  JumpToLabel("メニュー")
  DefineLabel("533")
  ShowMessageFace("mefist_fc2",0,0,2,43)
  ShowMessage("【メフィスト】(Affection:\\V[3233])")
  ShowMessage("女王陛下……なぜ私を、ここまで信用するのです？")
  ShowMessage("土壇場で裏切られるなどと考えないのでしょうか？")
  ShowMessageFace("grandnoa_fc1",0,0,2,44)
  ShowMessage("【グランドノア女王】(Affection:\\V[3533])")
  ShowMessage("信頼はしていませんが、信用はしていますよ。")
  ShowMessage("あなたのプライドが、裏切りなど許さないのでしょう？")
  ShowMessageFace("mefist_fc2",0,0,2,45)
  ShowMessage("【メフィスト】(Affection:\\V[3233])")
  ShowMessage("なるほど、ずいぶん人を見る目があるのですね。")
  ShowMessage("私を重んじるのは、信頼ではなく価値観を見抜いた上ですか。")
  ShowMessageFace("grandnoa_fc1",0,0,2,46)
  ShowMessage("【グランドノア女王】(Affection:\\V[3533])")
  ShowMessage("あなたを信じていると……そう言ってほしかったですか？")
  ShowMessageFace("mefist_fc2",0,0,2,47)
  ShowMessage("【メフィスト】(Affection:\\V[3233])")
  ShowMessage("ええ、もちろん。")
  JumpToLabel("メニュー")
  DefineLabel("メニュー")
  StartLoop()
   355("unlimited_choices(11, [\"Give presents\",")
   655("\"Add to party\",")
   655("\"View present list\",\"Request\",")
   655("\"Change form\",\"Never mind\"])")
   If(1,11,0,0,0)
    355("present_start(233)")
    0()
   EndIf()
   If(1,11,0,1,0)
    PictureClear(5)
    355("move_actor_ex(233)")
    EndEventProcessing()
    0()
   EndIf()
   If(1,11,0,2,0)
    ShowMessageFace("",0,0,2,48)
    ShowMessage("Affection     100:\\ia[1171]")
    ShowMessage("Affection     500:\\ia[1354]")
    ShowMessage("Affection   2000:\\ia[1028]")
    ShowMessage("Affection   4000:\\ia[1029]")
    0()
   EndIf()
   If(1,11,0,3,0)
    PictureClear(5)
    ShowMessageFace("",0,0,2,49)
    ShowMessage("Ask her for what? (Affection:\\V[3233])")
    ShowChoices(strings("Predation(Affection:10)","Predation...?(Affection:100)","Never mind"),3)
    IfPlayerPicksChoice(0,null)
     If(1,3233,0,10,1)
      355("call_novel_scene(4982)")
      EndEventProcessing()
      0()
     Else()
      ShowMessageFace("mefist_fc2",0,0,2,50)
      ShowMessage("【メフィスト】(Affection:\\V[3233])")
      ShowMessage("せっかくですが、またの機会に。")
      0()
     EndIf()
     0()
    IfPlayerPicksChoice(1,null)
     If(1,3233,0,100,1)
      355("call_novel_scene(4983)")
      EndEventProcessing()
      0()
     Else()
      ShowMessageFace("mefist_fc2",0,0,2,51)
      ShowMessage("【メフィスト】(Affection:\\V[3233])")
      ShowMessage("せっかくですが、またの機会に。")
      0()
     EndIf()
     0()
    IfPlayerPicksChoice(2,null)
     0()
    404()
    0()
   EndIf()
   If(1,11,0,4,0)
    ShowMessageFace("",0,0,2,52)
    ShowMessage("どの形態に変化させますか？")
    ShowChoices(strings("メフィスト（妖魔）","メフィスト（巨蛇）"),2)
    IfPlayerPicksChoice(0,null)
     355("persona_change(233)")
     PictureClear(5)
     EndEventProcessing()
     0()
    IfPlayerPicksChoice(1,null)
     PictureClear(5)
     EndEventProcessing()
     0()
    404()
    0()
   EndIf()
   If(1,11,0,5,1)
    PictureClear(5)
    EndEventProcessing()
    0()
   EndIf()
   0()
  EndLoop()
  0()
 PAGE   3
  // condition: party contains actor #233
  0()
 PAGE   4
  // condition: party contains actor #391
  0()
